SP_ID	Obs
62890	0
62840	0
62396	0
76268	0
80697	0
80793	5
76504	0
76433	0
80216	1
62274	15
59109	1
62758	22
76598	0
76332	0
80523	2
59195	0
80732	2
62404	0
80170	0
62602	0
80373	4
80310	2
59511	2
80435	0
59264	0
80440	0
62689	2
59346	4
59536	2
80174	0
62123	3
76252	2
80413	0
62888	0
59139	38
80097	1
76723	1
62003	1
76489	0
80345	0
59275	0
76482	3
59226	4
76585	0
62335	1
62829	0
76584	1
76331	1
62564	3
62229	1
80442	0
76216	20
76148	0
76458	0
80267	0
76731	1
59569	41
76063	1
62429	0
76751	3
76307	3
62809	0
80765	3
62626	3
76122	0
80235	1
76729	1
59423	2
80445	0
62743	1
76201	2
59654	17
76279	2
80321	0
80797	0
76685	1
62553	0
80052	0
59409	4
76652	0
62034	2
62468	0
76164	6
59505	1
62465	1
62072	3
76694	0
59234	11
76313	1
62780	1
62585	2
80085	1
80149	0
62520	8
80392	1
62891	0
62024	3
76320	1
76455	1
76191	0
59562	2
76485	2
59611	2
62835	0
62078	1
62411	0
59140	2
80447	0
59526	33
59619	0
80228	1
62271	1
62200	4
76230	0
76070	1
76544	0
59230	9
62606	3
80583	0
76506	1
62471	3
76702	2
76085	0
62206	1
76629	0
62526	0
59018	0
59300	0
76179	5
59394	2
76631	3
62655	3
62447	8
80629	0
76529	0
62391	1
76527	5
59367	18
59324	18
59284	8
59401	1
76051	4
76329	3
62031	3
62789	0
80724	5
76002	1
59106	2
59172	42
76561	17
59064	4
76551	1
62754	0
62557	5
76533	1
76363	0
62281	1
62513	0
76124	2
80807	0
59011	22
62604	5
59081	3
76492	0
62877	0
59589	2
59313	2
62092	0
76563	1
59215	2
59051	9
62299	0
62800	2
62573	7
80094	3
59395	1
62879	0
80302	0
80093	2
76219	7
80005	0
76536	2
62294	1
62321	7
62224	7
62094	0
80150	0
62322	0
80009	1
80814	0
62593	0
76414	3
62422	2
76452	14
62785	1
76186	1
76642	1
59157	4
59450	2
76431	0
59575	0
76524	0
80594	0
59496	1
80621	0
80026	0
76114	17
76198	0
80700	2
62360	2
59092	5
59412	0
80405	1
62672	5
59123	5
62681	2
80001	50
76692	0
62283	0
80239	0
59126	4
76569	1
62798	0
76127	0
76130	0
76746	1
62084	1
80658	0
76048	0
76448	2
80695	0
62166	0
62290	2
62470	1
80249	1
80411	0
80029	3
76052	0
80086	2
62228	2
80095	0
59546	1
62328	4
59411	4
62635	2
76357	1
62654	3
62750	2
59209	1
59583	2
76053	0
62481	0
59068	4
76612	0
62830	0
80758	0
59594	2
59506	1
76300	0
80374	2
76572	1
59535	1
76247	0
76494	1
59508	19
59468	1
76188	1
76299	0
76456	2
59545	1
76356	0
62491	10
76568	0
62313	2
59359	17
76065	0
62631	0
62570	20
76254	3
80074	0
62752	2
80271	1
76270	5
59147	2
76097	0
59050	1
80599	3
59347	4
62536	0
59080	2
80202	1
80688	3
62087	0
62162	2
59533	8
80709	1
80705	0
59669	0
76405	0
62453	0
80555	0
76006	0
80630	4
59144	1
76465	0
80059	0
62357	0
80671	0
76739	1
80589	0
62150	2
59477	10
80201	0
76023	0
76344	0
80420	0
62088	0
59233	2
62899	0
76404	1
76046	1
59564	6
62437	0
80690	0
59263	1
76180	0
76640	12
59056	1
62859	0
62040	19
62424	2
62853	0
76393	0
80478	0
62311	1
62388	0
62284	2
59461	0
59438	2
76509	3
80591	0
80192	0
76261	2
59601	8
80723	0
80578	2
76218	0
76740	2
59001	1
62441	2
62566	1
76402	11
76677	0
59285	8
76673	0
80804	0
80501	0
62443	8
59267	0
62581	1
80661	1
59328	51
59318	0
59031	2
62431	1
80453	0
76080	1
59004	2
76347	0
62333	0
80028	0
76619	0
76522	0
80525	0
76189	0
76324	1
62222	0
62836	1
76575	35
62161	0
76636	2
80088	0
80431	3
80439	2
59153	17
62852	3
80262	1
62327	2
62111	0
62340	1
62016	0
62627	1
76560	1
76451	25
62127	0
59297	3
59650	91
62554	0
76507	1
59293	3
76375	2
80415	5
80673	0
76157	15
59076	2
80015	0
62607	0
80186	4
59168	9
62028	1
76756	1
80456	0
59303	4
62548	14
62882	3
62379	0
76435	2
59565	2
76442	1
80784	1
59317	16
62776	0
76488	0
59156	7
62705	2
62702	0
76686	2
76717	0
80685	13
62319	0
76501	0
76606	0
80151	0
59608	2
62215	41
62147	0
80399	0
62430	0
62868	0
80294	0
62103	0
76289	1
80553	2
80683	0
62806	1
62408	1
80193	1
76339	0
76379	0
76311	0
80792	0
62264	2
62765	37
62565	0
62295	0
59003	1
76358	0
59580	2
62350	3
62690	0
59531	0
76716	2
62467	0
62252	3
80226	0
80701	1
76426	0
80331	1
80646	0
62262	2
59399	0
80642	0
62619	0
59635	1
76285	0
59266	10
59227	7
59636	14
76133	1
59360	34
76515	0
76328	1
80566	1
62846	7
59180	1
76603	0
62677	0
59259	1
62063	9
76411	1
80269	0
59256	4
62508	0
76644	0
80014	0
62716	1
62346	0
62372	0
76296	3
76461	0
80291	0
59390	6
59615	6
80410	1
76517	4
76253	2
80171	1
59188	1
80381	0
76123	0
76297	1
62883	0
62207	1
76505	0
62653	1
62205	4
76350	3
80498	2
59247	1
62022	0
80786	0
59214	2
62475	0
62486	3
62044	2
59148	0
76243	0
62666	4
59393	2
59174	0
80781	1
62100	2
80037	0
59142	0
76047	0
59544	22
62650	0
80084	3
62008	2
76555	1
76265	0
80444	2
62444	0
80025	0
59007	2
62692	0
62079	1
62777	0
59066	0
59633	2
80033	1
76469	1
62686	0
76066	0
62738	0
76224	4
59429	4
59319	5
59567	0
59502	3
80627	2
59566	2
62425	0
59646	26
76583	0
80496	0
59462	7
62399	1
80811	1
76595	2
76203	1
59138	1
62740	1
59088	0
62497	12
59637	0
76396	0
62125	1
62735	3
76738	0
62192	3
62871	0
59490	0
76152	3
62483	0
59431	9
62124	0
76635	0
80584	5
59334	2
80328	1
80477	1
62649	1
76260	1
59074	9
59065	3
80767	1
80252	0
76406	1
80353	1
76231	37
76274	0
62679	1
80184	1
62601	0
62769	1
62418	2
80062	7
76594	2
62563	18
62057	8
59315	2
62909	0
62213	0
80058	0
80342	0
76364	0
76049	1
59069	1
76483	0
62717	3
76407	0
80018	0
80654	0
76075	0
62198	0
62231	0
59486	4
80721	6
62423	4
80187	0
59628	2
80632	4
62502	11
80664	0
80648	0
62415	0
62646	0
76282	2
59452	13
80753	0
62427	81
80662	1
59329	14
80116	1
76547	0
59500	2
76143	2
62035	14
62656	3
59077	0
59075	0
80585	3
62291	6
80050	2
59253	18
62250	26
80220	1
76353	0
76664	0
80823	0
76166	1
62818	0
76417	0
59277	1
80032	0
62221	0
59310	0
80307	0
76410	22
59072	0
76059	0
76715	1
80755	0
59568	1
62047	0
80678	1
76004	3
59336	3
76294	1
76336	0
80158	0
76251	2
80425	1
62013	8
80195	0
59392	74
62522	1
76690	0
62142	0
80809	0
76747	0
62082	0
59483	1
62847	4
62268	9
80008	3
80513	0
62519	2
59618	0
62542	0
59542	1
76621	0
76153	1
59039	2
80314	0
76091	0
80020	0
62050	3
62850	0
59414	9
80162	1
59509	10
62433	0
59222	5
80517	0
80452	0
62817	3
62751	1
80548	2
62484	0
62560	12
59276	7
59017	45
62302	0
59487	2
80372	0
59102	0
62378	0
80512	0
62844	0
62263	13
80659	1
62303	0
80119	1
76139	0
80011	6
59560	30
76513	0
76495	13
62719	1
76391	4
76670	0
62377	4
62325	2
80406	5
76134	1
62407	3
62009	0
59623	5
62682	0
76628	0
80338	4
80799	9
76688	1
59133	0
80114	0
80521	1
62466	0
59467	4
62722	0
80272	0
80175	0
59382	9
76220	1
76486	3
59063	7
80651	1
80601	1
80828	1
62822	0
80375	2
62591	0
76087	0
80179	0
76449	2
59497	2
76609	0
59207	4
62389	0
76597	0
76255	14
80436	1
80461	0
59182	0
62402	0
76380	0
80371	0
59517	0
62544	1
62255	0
62095	1
76511	1
80588	1
80728	0
80643	2
62511	2
76288	1
80197	0
62164	7
59387	3
59454	1
59419	2
62742	0
62866	0
76062	0
80681	0
62485	0
76755	0
76521	0
62492	0
62085	0
76309	1
59554	0
62210	0
62760	0
76009	0
76748	3
62151	1
76161	1
59364	3
62182	0
62171	0
59257	3
76108	17
80565	0
62390	1
59129	2
80141	0
76284	0
76674	1
76741	0
62795	0
80486	1
76630	0
59389	5
62093	1
62860	0
62741	0
76703	0
80568	1
62027	0
76382	3
62261	13
62700	0
59302	6
76272	1
59205	12
80725	9
59473	1
76067	1
76462	12
59363	0
59165	17
62727	3
59405	1
76651	0
76432	0
62647	0
59645	1
62450	0
76680	0
80504	0
62746	10
62065	25
80318	13
80125	0
62342	1
80615	1
59503	0
59332	3
59112	25
76042	0
62896	2
76712	1
62759	0
62042	3
62657	0
62680	1
62193	149
62223	0
59115	1
59537	0
80760	3
59132	7
59289	5
59668	3
80785	1
76620	0
59249	22
59625	0
80330	0
62339	1
76623	0
80274	0
62289	2
62505	1
80285	0
62023	5
76286	3
62131	0
59083	1
62696	0
76368	1
59159	1
62480	7
62218	0
59096	1
76012	0
62381	0
80369	0
80200	0
59372	1
62143	0
59161	0
80124	2
80515	0
59122	76
62878	3
80027	0
59243	2
59272	11
59441	0
80346	0
59640	2
80740	0
80223	0
76362	1
80645	0
76173	1
62033	6
62461	1
62500	1
59282	1
80771	0
80652	2
80325	0
62343	0
80677	2
62804	0
59603	13
80127	1
59527	15
76151	0
80042	0
59573	1
80140	0
59294	2
59613	4
59534	0
62214	1
80625	1
80270	0
76576	1
62118	0
62012	1
76409	0
62796	1
62469	2
76720	1
76586	1
80076	1
62366	2
59638	1
59472	0
80556	1
76553	0
80130	0
76412	0
62736	7
59107	7
59379	2
76638	0
76132	0
80275	0
62043	2
59397	1
76672	2
80519	0
62356	0
76316	1
62220	1
62314	0
80253	17
80315	2
80196	0
59595	2
76434	2
62208	0
59047	0
76550	3
62704	0
62872	0
59585	5
80836	0
62383	3
76468	2
62099	17
76658	0
62490	0
76312	10
80458	2
62153	4
59323	1
62621	5
62588	4
76196	3
62576	1
80602	1
62276	11
80832	0
62243	0
80429	0
62756	6
76069	2
62547	0
62064	0
62097	7
76480	0
59152	24
76549	0
80332	1
80155	1
76695	0
62684	5
80607	0
80352	2
59663	7
62178	34
62675	2
59261	4
80509	1
80083	1
59240	0
59385	8
62595	5
59388	1
80616	0
62227	1
62603	3
76736	1
62472	0
62158	0
62285	1
80475	0
62510	70
62090	0
62697	2
80041	0
59341	3
76502	1
80320	0
62572	2
80532	1
80173	2
62673	3
62080	12
62537	0
62775	0
80780	1
80819	0
62440	3
80717	4
62384	3
62662	1
76030	1
76209	2
62323	4
80782	2
80061	0
80340	0
80003	2
76581	0
59010	0
59515	0
80788	0
59013	3
59630	9
62386	10
59052	15
80242	1
62225	0
62324	1
62139	9
80241	6
80547	0
62851	2
62478	1
62451	3
62515	2
62632	1
76205	0
76663	2
62005	1
62247	1
62812	0
62132	11
62019	14
62329	6
80465	0
62708	0
80117	0
76650	0
76711	11
80260	1
62067	1
62358	0
59600	1
80680	7
80100	1
76214	1
59301	7
62538	1
59605	0
59599	144
59325	0
80199	1
80273	0
59408	2
80438	2
80234	1
62375	0
62503	0
76425	0
59314	5
80527	2
62245	2
59170	9
62148	2
62154	0
80292	1
76478	0
80298	1
62410	1
59311	1
62725	0
80243	0
80282	1
62298	3
62734	1
76221	0
80656	2
80412	1
59217	2
62025	3
59553	4
76709	6
76367	1
76604	1
80265	1
59176	0
59521	1
76733	0
76721	1
62592	2
59453	1
80647	0
80391	0
80414	0
76171	0
59098	4
76005	5
80820	3
80822	1
80154	3
76540	187
80507	3
62439	1
80726	1
59032	15
80516	0
80245	0
62353	1
80109	1
76682	0
62038	8
76341	9
59181	1
80830	0
59094	9
59021	8
59631	6
59053	5
62055	0
80770	2
59492	1
62774	5
76233	0
62253	0
76744	0
62629	0
62104	1
76035	0
80266	0
59551	4
59137	2
59244	7
62265	3
80142	0
80593	1
62071	1
62802	0
59563	0
59307	1
76648	2
80047	2
80711	9
80493	1
62380	2
80185	1
76351	289
80518	2
62620	2
76698	1
80417	4
80827	3
80835	1
59327	12
80798	1
62858	0
76165	20
76754	3
62821	0
59482	13
59049	3
59210	3
80618	2
80748	0
76484	18
62771	15
76234	0
80316	4
76020	0
62580	2
76474	7
62671	0
80357	1
80757	0
59099	2
76503	1
80138	1
76155	0
62854	2
62316	0
62552	3
80055	0
76141	1
62543	3
80718	5
80106	1
62341	1
76422	1
76223	0
59374	2
59602	2
76275	2
80164	9
59481	5
62020	0
76144	0
76490	6
59232	1
59391	3
80313	0
62489	7
59162	1
62703	0
59252	4
62331	5
62172	0
80408	1
59093	0
59163	34
80013	3
80036	0
62091	0
62820	3
76086	0
59579	2
80229	1
62230	1
80206	0
76516	0
62368	1
76459	0
80706	4
80096	1
76238	2
59036	14
80396	0
59383	21
59641	4
62054	1
62711	7
76471	0
62174	3
80040	0
62614	1
59150	0
80327	1
59145	0
62721	6
59504	11
80104	0
80336	1
80617	1
76538	0
62587	31
62288	5
62349	1
62815	0
62260	0
76487	0
76427	1
80491	0
59444	1
80608	0
59425	2
76193	0
80098	0
59271	49
62590	0
62336	1
62637	23
62362	3
76112	0
76564	0
80378	0
76039	2
76725	0
80699	0
80301	0
76283	0
62037	6
62661	3
76369	2
80810	0
62076	1
59194	3
76535	0
80488	6
62562	0
80349	0
80470	0
76167	2
59649	4
62406	0
80248	0
59357	5
62400	8
62652	2
76567	0
76210	0
80224	1
80146	0
62395	0
59586	11
80734	0
62556	1
59576	2
80604	0
62128	10
76024	0
76217	61
76706	0
76523	0
76689	0
76077	0
62266	0
62793	1
76654	1
76724	0
62397	13
76185	0
62286	1
62714	1
59333	0
80803	0
76183	1
76388	2
62855	0
62549	2
62058	0
62015	0
76163	2
76401	4
62638	1
80670	1
62039	1
62816	1
59171	0
80021	337
62669	0
80737	0
80054	1
62199	2
59203	4
80668	1
59316	5
76562	0
62612	4
80016	26
80746	2
62863	11
59054	2
76714	2
59190	3
62561	0
76679	0
59062	0
80123	0
62315	0
80355	0
59435	4
76735	0
80367	0
76531	0
80611	5
76632	0
80237	2
76728	0
80159	0
59134	5
76010	0
76446	2
62135	3
80529	0
62180	0
59343	9
76175	2
76245	2
59084	6
76241	0
80152	0
76384	6
76646	0
76519	0
80067	1
80299	0
80213	0
59079	13
76170	1
62107	1
62269	3
80276	0
59312	3
80403	1
62365	0
59498	1
62688	9
62770	5
62257	2
62184	0
62773	0
76088	0
59085	1
59279	31
76719	3
62479	5
62904	3
76708	1
76559	1
76060	0
76439	0
59457	16
76510	0
76040	1
80423	1
80694	0
59456	8
76029	0
76298	0
76743	2
80750	0
59183	155
80306	0
62061	0
76565	0
59218	2
62458	1
76737	0
80692	1
80577	0
59344	5
80469	0
76211	0
80341	2
59416	6
62165	1
62138	1
76624	8
80145	0
80806	1
76518	0
80297	0
62529	5
80303	2
62242	0
59653	9
80153	0
59151	3
62202	0
76074	0
62894	8
80460	0
62155	0
62845	0
62374	0
80473	0
76759	1
80663	0
59033	15
76291	3
59331	9
59493	0
62363	2
59463	0
62521	0
62706	6
80579	1
80467	0
80443	3
80379	0
62251	1
76182	0
80459	0
76691	2
62839	1
62772	0
76473	0
76101	1
80542	3
80729	0
62277	6
80743	0
76416	0
76590	0
59656	9
80613	0
80468	0
59034	3
76325	0
62645	11
76556	0
76232	0
80300	0
62309	3
80485	5
80559	1
80078	2
62597	1
80605	0
62112	0
59455	4
62799	1
80386	0
76666	0
62116	0
76415	1
80368	8
76177	0
62670	0
80148	1
59141	1
76204	0
62609	4
59442	0
76120	0
80339	0
80620	10
80344	0
62241	0
62096	2
59025	3
62568	1
80190	5
62137	0
80777	0
59520	4
80023	0
62438	0
59559	2
80022	1
62344	0
62419	0
59255	1
76064	0
80077	1
59543	2
62190	4
76477	0
80754	1
59045	1
62293	0
80089	0
76015	2
62633	0
76045	0
76248	1
59523	5
80079	0
59588	17
80156	1
80698	0
76371	0
80048	0
59177	1
59169	0
62801	7
76408	2
76500	0
80139	0
80779	2
80805	0
59443	2
59386	11
59046	0
59015	1
76019	2
80794	0
59660	3
62693	2
62781	4
76071	0
80038	1
80464	1
62183	0
62506	5
80401	1
59353	0
76398	0
62487	2
76126	1
62006	0
76662	1
76138	0
80826	1
80557	0
80596	0
80722	1
62239	5
62434	0
62622	1
80514	0
80122	1
62658	0
59480	1
76125	7
80017	0
62864	1
62668	1
59265	3
80665	0
76116	7
76758	11
80305	1
76676	3
59014	18
62726	0
80366	1
80600	0
76454	0
80068	0
62577	0
76033	0
76082	1
76025	0
76135	1
59396	1
80551	0
80562	1
59120	3
76361	1
59090	15
80230	1
59104	6
62301	1
80546	1
62594	2
62905	1
59488	8
59598	5
76105	1
62723	1
62664	0
76158	0
62048	15
59584	1
59529	1
80730	6
59428	4
59128	2
59136	28
80044	1
76342	1
62678	0
76236	0
62842	15
62857	0
62463	1
62233	1
62168	2
62834	0
80752	2
62608	1
59664	1
59204	1
62121	0
80449	0
62145	3
80324	0
62457	20
76546	0
80450	1
76669	1
80479	2
59023	4
76512	0
80212	11
62683	0
59111	0
62701	0
80829	0
59179	18
76705	3
76174	0
59286	34
62186	28
80259	0
76028	0
76655	8
76472	0
80834	2
59055	1
80233	1
59348	4
80622	3
80046	0
59512	168
62599	0
59407	0
59117	1
59437	4
76304	0
80520	0
62089	0
80304	1
62235	2
59418	3
59008	20
76156	2
62081	0
59042	3
76668	0
76095	13
59158	4
59067	13
76656	2
59406	0
76399	0
62069	2
76645	0
76269	0
59590	1
59670	0
76418	1
80308	6
80030	0
80166	0
59135	1
80312	1
76530	0
80573	0
59514	10
62732	0
80002	1
62539	2
76447	22
62767	14
59350	390
76345	0
76520	2
80209	1
76360	0
80634	2
76190	0
80708	0
76667	0
80295	1
80580	0
80024	0
80495	0
76355	1
80554	3
80676	0
59178	83
59499	2
76315	2
80703	1
59246	3
80674	9
76212	19
59458	0
59130	0
80092	3
80354	1
76129	0
76430	0
76570	0
62518	0
80232	0
62699	0
62204	2
76084	0
76335	0
80603	0
62436	1
76421	4
59612	3
62907	19
80053	0
59024	10
76463	0
62369	3
80422	1
62041	103
62810	3
62516	25
59370	5
76710	0
76413	1
76032	0
76424	1
76366	6
62122	3
62843	0
80801	1
80057	0
80561	9
76615	1
80161	0
80778	0
76684	1
80393	3
76271	1
59058	2
59121	1
76092	0
59570	2
62146	0
76314	0
76528	0
80177	1
59187	0
80004	0
62308	0
62761	1
80769	1
80535	0
59283	1
76678	0
80329	0
59309	5
76305	11
80039	0
76525	0
76634	1
80319	0
59470	2
80432	0
59596	1
80774	0
76610	1
80361	0
80073	2
76318	2
62105	1
62598	0
80120	0
80219	0
59522	2
62052	2
59143	11
76394	0
80343	0
80278	0
62189	0
80494	2
62234	0
80293	1
80427	3
62745	1
62157	0
80362	1
80787	0
76470	0
76534	3
80402	0
76359	0
80572	1
80679	0
62351	20
62805	1
76542	0
62140	1
62240	9
76378	1
80383	0
62790	0
62348	0
59103	1
62617	18
62398	0
62778	0
80180	1
76128	0
62663	0
80102	3
80350	0
62292	2
80351	1
59229	1
59224	3
76200	0
76280	0
80107	3
62403	4
62782	1
62880	0
59421	15
59659	6
62126	19
80714	1
59368	34
62163	0
62730	1
62474	1
62865	15
59489	15
80675	0
80776	0
62488	0
76428	0
80735	1
80182	6
76573	1
59175	1
59116	0
80222	2
59127	0
62259	6
59057	2
59071	4
62530	0
80614	1
80638	0
76641	0
59365	8
59398	5
62525	28
76626	0
76083	0
62296	0
80472	0
76607	0
59296	0
62029	0
62109	0
62715	0
59213	1
59197	4
76131	0
62456	1
76213	0
62636	0
59427	3
59321	5
76178	10
62156	1
80110	0
76683	0
62074	2
76481	10
62338	5
59384	1
80672	0
80595	0
62729	0
76168	0
80800	1
80231	0
62694	0
76094	2
59667	1
62177	2
80284	0
76013	2
76616	1
62764	11
59155	29
80587	0
62278	1
62203	0
62733	1
80563	0
62574	0
76104	0
76352	0
59548	3
59433	5
80176	1
76090	2
80404	0
80387	1
76240	1
62060	2
62307	0
62476	0
62512	3
62246	0
76154	0
59274	2
76381	0
76732	0
80575	0
59609	4
62856	2
80640	1
76050	0
80335	0
80476	0
80424	1
76034	1
62832	1
59211	0
76613	1
76593	1
80238	0
80261	1
62731	0
76159	5
59060	0
59160	11
80433	0
76022	0
62897	3
62115	0
59048	1
62361	7
59339	14
76348	2
76160	0
76665	0
76734	1
76423	0
80428	0
62032	11
59242	2
80108	0
80691	0
62133	19
62744	9
80813	1
62628	9
59250	4
76308	1
76016	1
62893	12
80035	0
80380	0
80812	0
62551	1
80034	0
59616	15
80070	1
76429	11
62062	0
59091	2
62179	0
59538	1
76121	0
76730	0
59287	0
62036	1
62875	3
80693	0
59070	0
62413	30
80462	1
62393	2
62371	5
62317	3
62748	3
76400	7
76508	0
62272	2
76386	1
62861	10
80576	0
62345	0
62330	2
76319	12
59530	1
76026	3
80802	0
80545	4
59587	2
80789	0
59280	3
62623	0
76554	1
62129	0
80560	1
59518	2
62641	2
62075	3
59624	2
62824	2
80490	1
76338	0
62459	0
62695	1
59378	49
62045	5
62359	2
62073	6
76222	7
59337	0
59440	3
59642	1
62212	2
62007	1
59278	7
76582	1
62051	9
76745	0
59507	25
59304	5
59413	2
80761	0
62567	2
59432	1
59320	2
62630	0
59006	1
80006	1
62797	0
62665	0
76419	0
62279	2
62495	1
76681	30
62766	2
59028	19
62068	1
80218	1
76441	0
62070	1
62211	0
80455	0
76273	1
59632	6
80263	0
76058	1
76627	1
76057	21
62004	13
80132	0
62691	1
62306	2
80348	0
59308	1
76395	2
80090	1
76262	0
80756	0
76327	1
59525	6
62332	2
76390	1
80543	0
59593	0
62355	1
80191	1
76750	1
80217	0
76263	1
76140	1
59295	46
62908	4
62833	1
59113	2
59125	1
80066	0
62320	3
80163	3
76149	0
62310	4
62639	1
62906	3
62900	3
59479	3
62889	0
80808	0
62053	2
59424	1
76617	0
59604	2
80221	2
62644	1
80667	0
76749	1
80749	0
76076	0
76577	0
80389	0
62326	0
80167	0
80751	0
62881	0
76657	1
80481	0
59221	4
62737	10
76343	2
80650	1
59260	3
62886	0
59351	3
76290	0
80635	1
76436	2
62555	12
62496	0
59549	2
76302	3
80131	8
76109	0
62747	2
62385	1
62849	5
62501	2
59354	0
62446	2
80409	1
59167	0
76373	0
62455	0
59326	1
62219	0
59555	4
59617	0
59606	55
80064	0
80741	0
76306	0
59342	0
80168	2
76460	1
80451	1
80247	0
62674	2
76036	1
59041	5
76440	0
76532	0
80571	3
59330	2
76392	2
59528	3
76605	0
80225	1
59269	2
62448	1
62720	1
59288	2
76103	10
62862	0
59494	0
76117	2
62676	2
62869	5
80207	1
62017	0
62191	1
59082	2
76001	4
76093	0
80189	0
76476	11
76322	38
80766	2
76181	1
62010	1
62895	20
76453	3
80628	0
59200	3
76206	0
76321	3
59491	15
62217	4
80702	3
80418	0
59465	1
62579	3
59516	1
76497	14
62387	1
76699	0
76184	0
76194	0
62117	5
59149	1
80682	0
76467	3
59356	1
76197	0
59446	2
76195	2
62304	2
80128	1
76334	0
59478	0
76330	1
62509	0
76589	0
76753	1
76292	0
59375	11
62826	7
76228	0
76202	1
59029	0
80143	0
62049	2
80082	5
80215	0
59547	2
62354	0
62827	1
76293	0
80687	0
59371	1
62698	0
80639	2
76333	0
62337	0
59345	10
59164	1
76008	1
62532	4
62435	0
59648	23
76239	1
76303	1
76700	3
62270	10
76099	2
62432	0
76757	0
59475	4
80203	0
76169	1
59610	2
62462	0
59469	1
80796	0
76578	0
59239	9
62445	0
59607	0
59634	2
76727	1
62421	0
62885	2
59464	4
62803	1
59043	19
76491	0
76587	1
76100	0
59173	6
62819	2
59485	7
62873	2
62401	9
59665	1
62175	0
80597	3
59238	4
62238	0
62903	1
80051	0
80356	0
80198	0
62086	0
76266	0
80466	0
62651	2
80118	0
76618	13
80437	1
59519	0
59614	5
80598	3
80742	0
76596	5
80744	1
62616	0
62709	0
80205	3
80619	5
59647	6
59349	3
62648	0
59206	17
76653	1
59552	2
76377	2
80631	0
76389	1
62624	16
80569	1
80609	2
80390	1
59044	12
62791	0
62753	26
80133	0
59448	1
80049	0
80087	0
62442	2
76192	1
80696	2
59574	19
76017	2
80296	5
62755	3
62077	0
59322	9
59202	7
76545	1
59273	16
80385	2
62030	0
59524	12
76162	2
59270	2
62571	5
62300	6
80552	2
59101	0
76142	0
59557	3
76041	0
80480	1
76697	1
80775	0
76199	1
59073	1
62901	1
62546	3
62185	0
62173	9
80824	2
59377	5
62181	1
76443	2
59582	3
62001	3
59191	3
59059	2
62170	7
80530	1
62018	0
62504	0
59581	5
62334	1
62452	2
62113	2
62237	0
80503	1
59662	0
59352	8
76464	3
80747	0
80063	1
62101	0
59501	3
80099	1
76499	3
76249	1
76226	0
59550	8
76622	0
59061	1
62779	1
62625	0
62195	2
80129	1
80511	0
59513	2
76242	0
62831	1
76225	0
59597	2
62367	1
80738	0
62083	22
80135	0
62416	2
76078	0
59119	0
62232	1
59146	3
80482	0
76278	0
76475	7
80463	2
62540	5
76014	1
76592	0
80497	1
62788	2
76115	1
59358	1
62493	0
62784	2
62201	4
59451	1
62876	0
62582	0
62414	1
62297	3
62144	1
76437	2
62188	3
76543	1
59185	3
59459	10
62160	82
80416	0
76237	0
76541	2
62718	3
59305	2
59658	2
76323	0
59578	2
76552	12
76600	0
62527	2
62056	0
59434	5
80279	0
80311	0
80657	0
80528	0
80582	4
62167	1
59439	0
62428	5
76537	1
62584	0
80208	1
62514	0
62256	1
62578	0
62194	7
80446	1
59089	3
62685	1
62569	3
80317	0
59541	4
80505	0
59118	7
80136	3
76479	0
59212	9
62258	1
59100	1
62841	4
59430	3
80322	0
62768	1
62867	0
76147	2
62825	0
62108	32
62763	0
59620	0
80181	0
62828	0
76591	1
80825	0
62216	1
76187	0
76349	0
62059	1
62787	1
80280	0
80288	0
62814	0
80649	1
62634	2
59361	5
80333	2
59415	2
59258	3
80065	0
62275	1
59381	0
59196	2
59629	2
59241	1
76639	1
59193	6
59198	1
62724	35
80165	0
62267	0
59223	1
80264	0
62887	1
59186	0
76038	1
80487	0
62848	7
62517	2
80430	0
59208	1
62589	3
62066	0
62837	2
62409	0
59622	5
76660	0
59420	0
76235	4
59131	19
76172	0
62426	0
59251	0
76558	6
59369	8
80704	0
59403	1
62605	1
62021	0
76372	0
59306	0
62600	0
62528	8
80790	0
59447	20
80376	0
76007	0
80395	0
59189	0
59027	1
62870	3
59225	13
80474	0
80113	2
62615	1
76602	1
80821	1
59556	0
76276	7
59086	4
62370	0
76718	0
76498	30
62412	2
62120	0
80204	1
62610	2
76649	0
76637	2
62454	6
62236	1
80795	2
76346	0
59108	2
80105	0
80364	2
80484	0
80710	0
59366	5
76445	3
76110	1
59110	2
80388	0
62559	3
59335	4
80268	0
80337	0
80258	0
80287	1
80160	4
59022	4
76671	1
62364	9
59652	0
62187	1
80489	9
76397	4
62026	2
62249	22
59626	2
80101	1
62613	0
80250	0
62134	0
62352	2
62196	1
80533	1
76383	0
62106	1
76118	0
76580	0
80719	0
59657	0
59340	4
76614	2
59558	2
80407	0
80637	0
76566	1
59422	3
76370	2
59184	2
76450	1
80655	0
80194	0
76387	1
80060	0
62534	7
76557	0
76011	0
59338	2
80736	0
62114	0
80606	4
62808	1
62373	1
80434	1
80558	1
59471	5
62273	0
62618	2
76257	0
59666	2
59484	13
62102	0
80522	0
59402	1
59216	0
62130	2
59199	3
62382	2
62596	0
62477	1
76287	2
80833	1
62169	0
76018	1
80347	1
62667	23
59426	9
76072	0
76281	2
62583	3
62813	0
76176	2
59539	2
80508	0
62152	1
80763	0
76054	3
80211	5
62757	17
62011	1
80500	1
62312	0
62507	1
62392	0
80536	0
59651	1
80043	2
76493	0
80134	0
76752	2
76295	5
62762	0
62786	0
59124	5
80733	0
76317	0
80502	0
76208	2
80541	0
59220	36
80183	0
76119	0
62499	0
59231	0
59290	1
76055	1
80240	3
80251	0
62119	57
62149	0
62254	0
59087	4
59236	2
80686	2
62811	4
62642	2
59400	18
59105	5
59035	2
59291	30
80716	1
76043	0
80624	0
59005	7
59201	2
76146	5
76096	1
59592	5
76514	1
59410	37
80069	1
76526	0
80586	0
76726	0
62535	0
62659	0
76403	0
62524	2
80526	0
80592	1
59254	2
80783	0
59572	4
62282	0
62739	1
59016	4
59012	9
80126	0
80713	0
59299	28
62838	0
76574	2
62728	4
80210	0
80426	0
62531	0
59166	1
62405	0
62002	1
80377	1
80246	1
76250	0
80244	0
76647	7
76438	0
62823	1
62176	1
62749	0
76611	1
76136	2
62347	0
76693	1
80071	4
76264	1
59268	4
62046	1
76385	2
59237	0
80419	0
76044	0
76068	1
62545	0
76111	0
62494	0
80538	0
62898	0
76207	1
80227	0
80421	1
59639	1
59078	0
59643	2
62783	0
76374	2
80544	0
80281	1
80256	4
80365	0
76340	0
62643	24
62318	23
80684	0
62464	6
80400	1
80773	0
80633	0
80188	1
80590	1
62014	32
76229	0
76675	1
80762	2
76588	0
62713	3
80623	0
80080	1
62460	2
59445	9
76244	0
62586	1
62376	4
80326	0
62449	0
59097	1
76599	5
80157	0
62710	0
76457	1
59591	3
80759	0
76227	0
80815	0
62611	3
62523	18
59449	20
80045	0
76608	2
80644	0
62550	0
80056	0
80570	11
76354	2
80360	3
59655	1
76079	0
80384	0
80214	1
76707	0
59019	0
62792	3
80531	0
80334	0
76420	0
62541	0
80112	0
59627	0
80236	1
80626	0
80081	0
80010	1
76571	0
80669	0
59026	7
80499	1
62280	1
62660	3
76113	0
76365	1
62248	1
76056	0
59436	4
80666	0
80144	0
80574	0
80147	1
76107	0
80524	1
80550	0
76259	35
59292	4
76548	1
80283	1
76021	0
62533	0
62498	58
80397	0
80537	1
80169	0
80359	2
80540	1
80791	2
80358	2
80121	0
62209	0
59474	1
59002	6
80549	0
62141	1
59219	1
59114	3
59192	3
59466	6
62473	26
80707	0
59495	7
59037	15
62712	2
80172	3
80031	1
59577	2
80764	1
59661	0
59532	0
80137	0
62558	0
59009	105
76258	6
59281	2
80115	0
80103	0
59038	5
62244	10
59571	12
62197	5
59228	0
62892	1
62874	2
62640	0
80290	0
59262	3
80019	0
59476	8
62794	1
62902	9
76106	2
