SP_ID	Pop	Year
62890	0.300452612461154	2000
62840	0.236166212958448	2000
62396	0.0195941879781573	2000
76268	0.323636501536294	2000
80697	0.0332721220677813	2000
80793	4.05328957126004	2000
76504	0.217984111821092	2000
76433	1.01706206324253	2000
80216	0.253262457115094	2000
62274	10.2028622315562	2000
59109	1.34722668517443	2000
62758	19.9485369211136	2000
76598	0.770646254744149	2000
76332	0.75996188734701	2000
80523	2.31635282597323	2000
59195	1.01580771990407	2000
80732	1.26191689898364	2000
62404	0.348660942167056	2000
80170	0.229991044616002	2000
62602	0.238557338349978	2000
80373	4.95411604255243	2000
80310	0.969650317086358	2000
59511	3.19260827859772	2000
80435	0.159247288706662	2000
59264	1.33720913886705	2000
80440	0.240734086331742	2000
62689	0.616649780386922	2000
59346	5.8912873497015	2000
59536	1.30652945966381	2000
80174	0.140120853333925	2000
62123	0.868793982075815	2000
76252	1.80920925659213	2000
80413	0.17609348370902	2000
62888	0.366413141257789	2000
59139	25.4376570469027	2000
80097	0.216791391695426	2000
76723	0.648904908063971	2000
62003	0.885376922068355	2000
76489	0.611289000870417	2000
80345	0.929765979645996	2000
59275	1.91903866658791	2000
76482	5.55292611133751	2000
59226	2.48078578587018	2000
76585	0.57248484974834	2000
62335	0.812802319564223	2000
62829	0.637136671591999	2000
76584	0.373764122664668	2000
76331	1.35941957095113	2000
62564	0.672222550628227	2000
62229	1.06898682651122	2000
80442	1.91610069774859	2000
76216	20.1451341325774	2000
76148	0.501040353282627	2000
76458	0.224793988195059	2000
80267	0.440260986436825	2000
76731	0.273310318780181	2000
59569	30.5003897139356	2000
76063	0.74237647737616	2000
62429	0.503923108533883	2000
76751	2.41219560059842	2000
76307	2.02327893289119	2000
62809	0.226826773820565	2000
80765	1.36900900973927	2000
62626	3.81830837456157	2000
76122	0.826445172344353	2000
80235	2.45281432164447	2000
76729	1.29637342137375	2000
59423	2.12563978493212	2000
80445	0.465344390810053	2000
62743	0.666433570106375	2000
76201	0.905747769233823	2000
59654	14.4762377261339	2000
76279	0.588095489946587	2000
80321	0.174744899780258	2000
80797	0.199071736172253	2000
76685	0.88783072755771	2000
62553	0.474250847199613	2000
80052	0.403546440319898	2000
59409	4.8973728846516	2000
76652	1.01877456295979	2000
62034	4.11259380582051	2000
62468	0.38162341625022	2000
76164	4.32363334786275	2000
59505	1.04833618238799	2000
62465	0.350469932779731	2000
62072	0.426885755021424	2000
76694	0.209935893690135	2000
59234	10.0820074049259	2000
76313	1.33693287540816	2000
62780	0.692682071278832	2000
62585	0.60142651138392	2000
80085	0.0602269620248179	2000
80149	0.955338258365544	2000
62520	4.13255416102486	2000
80392	0.887323530888863	2000
62891	0.247100767190818	2000
62024	1.46850163015192	2000
76320	0.598484002838133	2000
76455	0.422472585730794	2000
76191	0.412812101057969	2000
59562	0.901018861742898	2000
76485	0.520814867576664	2000
59611	3.98246720285431	2000
62835	0.907941510905189	2000
62078	1.6821024902841	2000
62411	0.0730396208020971	2000
59140	0.774818122435328	2000
80447	0.163416534567645	2000
59526	31.1036855544633	2000
59619	1.32492756542409	2000
80228	3.82928353555835	2000
62271	1.43496480398936	2000
62200	1.72501883406149	2000
76230	0.535599029922449	2000
76070	1.16441283744956	2000
76544	0.34110578260508	2000
59230	10.2248713951811	2000
62606	1.86028460645032	2000
80583	0.420604741924696	2000
76506	0.58462600503468	2000
62471	0.585038971237229	2000
76702	1.42633922312806	2000
76085	0.489012859804124	2000
62206	0.423779558288209	2000
76629	0.352466328856724	2000
62526	0.22683157362507	2000
59018	2.61846750282039	2000
59300	0.852225198664493	2000
76179	2.25060434003351	2000
59394	0.696673777961812	2000
76631	2.29455965950481	2000
62655	0.434101122684429	2000
62447	4.19107631825846	2000
80629	0.196801912470461	2000
76529	0.445830541585206	2000
62391	2.35649555546357	2000
76527	0.764577792595232	2000
59367	23.3414883779412	2000
59324	19.326979990571	2000
59284	6.12922127559078	2000
59401	3.65413832361189	2000
76051	3.06905298644704	2000
76329	4.90419153873555	2000
62031	2.73098787993408	2000
62789	0.373659084777246	2000
80724	4.697474789189	2000
76002	0.847851083194686	2000
59106	1.29387283146548	2000
59172	36.7826288339705	2000
76561	15.0415017680729	2000
59064	2.2205196778035	2000
76551	1.416282370337	2000
62754	0.755344376636354	2000
62557	4.20135875405099	2000
76533	2.13234269784549	2000
76363	0.963469333502281	2000
62281	0.608112386115797	2000
62513	0.325023106303841	2000
76124	0.576954453718881	2000
80807	0.413581097451862	2000
59011	17.6109798681274	2000
62604	6.11915571801145	2000
59081	1.00708057204465	2000
76492	0.944011750659525	2000
62877	0.253097464519758	2000
59589	4.62308213502544	2000
59313	2.22392604267024	2000
62092	0.649167065290604	2000
76563	2.29492405655463	2000
59215	1.5618113096334	2000
59051	11.2684817287891	2000
62299	0.339143686703265	2000
62800	0.534806057043463	2000
62573	6.95632024669579	2000
80094	0.791359999231911	2000
59395	0.479057086256546	2000
62879	0.461052148023606	2000
80302	0.269538088289617	2000
80093	2.13218180959259	2000
76219	4.33018234174896	2000
80005	0.150737155277745	2000
76536	1.72538828837174	2000
62294	0.652858190138863	2000
62321	8.67735115453156	2000
62224	5.26613745291098	2000
62094	0.698860441235535	2000
80150	0.47945089147423	2000
62322	0.2522283701939	2000
80009	1.43507628707914	2000
80814	0.734222152972543	2000
62593	0.163660812261068	2000
76414	2.29271211255899	2000
62422	0.863184475527465	2000
76452	8.17251644160172	2000
62785	1.61243816613814	2000
76186	0.771967541757709	2000
76642	0.424120245185758	2000
59157	4.1888545660682	2000
59450	1.18238375097496	2000
76431	0.175689192064408	2000
59575	0.610926061000979	2000
76524	0.198047928615717	2000
80594	0.202637793469884	2000
59496	0.378741377172814	2000
80621	0.525357592837521	2000
80026	0.0512478027946874	2000
76114	23.1285101447312	2000
76198	1.14606693497417	2000
80700	1.760361665367	2000
62360	2.03011189439321	2000
59092	7.61838952003885	2000
59412	0.637547996290146	2000
80405	0.656874183053168	2000
62672	1.11878705741291	2000
59123	2.84575007634668	2000
62681	1.23329658340475	2000
80001	44.6000008852244	2000
76692	0.452359196467257	2000
62283	0.182753389675548	2000
80239	0.0851274791033041	2000
59126	2.53421399476141	2000
76569	0.355544563960764	2000
62798	0.37826733994386	2000
76127	1.17824937992167	2000
76130	0.401035312682002	2000
76746	0.33506728884207	2000
62084	0.420600187546027	2000
80658	0.348372477296225	2000
76048	0.442960436505375	2000
76448	2.2376592489819	2000
80695	0.769165683787328	2000
62166	0.970509444540907	2000
62290	0.604698831179861	2000
62470	0.118480829042252	2000
80249	0.443185369270967	2000
80411	0.915108195863998	2000
80029	1.4976112508342	2000
76052	0.365632633009869	2000
80086	1.8610451789469	2000
62228	0.404835895477568	2000
80095	0.341410640173898	2000
59546	1.81986543413303	2000
62328	1.62916635125439	2000
59411	3.57647272429882	2000
62635	0.353519289140483	2000
76357	0.619788636499991	2000
62654	1.09489665517142	2000
62750	1.35908525068665	2000
59209	1.15813033590448	2000
59583	0.832273131112647	2000
76053	0.262885893556476	2000
62481	0.32627900734692	2000
59068	5.60366296227367	2000
76612	0.323862779303026	2000
62830	0.313855777433949	2000
80758	0.277677921868647	2000
59594	1.99438365147104	2000
59506	0.665242913883642	2000
76300	0.660582139584834	2000
80374	0.387741568452372	2000
76572	0.388540167158026	2000
59535	2.62675203393134	2000
76247	0.787828167642405	2000
76494	0.952446916189523	2000
59508	23.0938655194243	2000
59468	0.551955572885841	2000
76188	0.661278832978038	2000
76299	0.607585977423431	2000
76456	1.4044915366637	2000
59545	2.306195215436	2000
76356	0.166617359905448	2000
62491	8.11915831255615	2000
76568	1.01082305822693	2000
62313	1.66883268905864	2000
59359	11.98796677336	2000
76065	0.658060856564423	2000
62631	0.631852357792376	2000
62570	21.6853813236439	2000
76254	2.59167435608394	2000
80074	0.215559350362109	2000
62752	1.85434562269218	2000
80271	1.82896586858415	2000
76270	4.17639790136475	2000
59147	0.113583052990746	2000
76097	0.184478201634189	2000
59050	0.62310628534326	2000
80599	0.399601286057781	2000
59347	0.871505401555404	2000
62536	0.964289824246404	2000
59080	4.67082583167627	2000
80202	0.465383641706612	2000
80688	5.06268595579904	2000
62087	1.38159323465172	2000
62162	0.949390039910815	2000
59533	2.82689250843359	2000
80709	0.428709226526876	2000
80705	0.13797356823662	2000
59669	0.912496749950797	2000
76405	0.335632578502909	2000
62453	0.198476425782088	2000
80555	1.32636497105811	2000
76006	0.185664005820377	2000
80630	4.13880085806864	2000
59144	1.43535489834581	2000
76465	0.986848815266829	2000
80059	0.130161876559684	2000
62357	0.112584619092958	2000
80671	0.340629076330593	2000
76739	1.12182030643225	2000
80589	0.142490394056891	2000
62150	0.822666961845343	2000
59477	6.80677723558601	2000
80201	0.0686249390563037	2000
76023	0.409952001187246	2000
76344	0.706987684981895	2000
80420	0.234327294922027	2000
62088	0.565329741986749	2000
59233	0.644141078655756	2000
62899	1.95118203752223	2000
76404	2.04311077222232	2000
76046	1.08693778828935	2000
59564	6.07103118043058	2000
62437	0.537090568230554	2000
80690	0.930854118488293	2000
59263	1.80656629417459	2000
76180	0.279055264220694	2000
76640	15.1558028570084	2000
59056	1.57722728079169	2000
62859	0.504202913282797	2000
62040	17.6811221120726	2000
62424	0.505254030875687	2000
62853	0.678809855903736	2000
76393	0.0872055579532732	2000
80478	0.238693280765412	2000
62311	3.3974346485617	2000
62388	0.565142042517561	2000
62284	2.9392034642828	2000
59461	0.542559359287799	2000
59438	1.20294390858441	2000
76509	2.92288171854396	2000
80591	0.318529547943617	2000
80192	0.209022093042939	2000
76261	0.619486020959043	2000
59601	5.12769155386246	2000
80723	0.409887559278596	2000
80578	1.12650069689078	2000
76218	0.120041551564032	2000
76740	0.763776269170205	2000
59001	0.796061127557775	2000
62441	0.380204531038728	2000
62566	1.16159323961656	2000
76402	10.8494885773612	2000
76677	0.587386918157575	2000
59285	4.80918014296834	2000
76673	1.54850422226263	2000
80804	0.253872475740098	2000
80501	0.474841573091569	2000
62443	11.5165316261215	2000
59267	0.499068423786765	2000
62581	0.491723893004194	2000
80661	1.38495059716334	2000
59328	50.9526304312865	2000
59318	1.43014993244598	2000
59031	0.450781615321051	2000
62431	0.816220919731717	2000
80453	0.190197662118351	2000
76080	0.750637832889304	2000
59004	1.78770121982479	2000
76347	0.560255025320425	2000
62333	0.58092557198842	2000
80028	0.234669343223413	2000
76619	0.500699120136063	2000
76522	2.10659020792277	2000
80525	0.249345091002249	2000
76189	0.186479358288481	2000
76324	1.29198662598475	2000
62222	0.335953364828306	2000
62836	1.38087745033786	2000
76575	54.4230046130909	2000
62161	1.18191132772149	2000
76636	3.80340155969409	2000
80088	0.580776757501778	2000
80431	0.876369636556358	2000
80439	0.287554678322012	2000
59153	18.9840395061466	2000
62852	2.2091199161349	2000
80262	0.694494272624844	2000
62327	0.873337718448597	2000
62111	0.459228818097356	2000
62340	1.28670890209448	2000
62016	0.382313260911709	2000
62627	1.17273360867578	2000
76560	1.63406222779533	2000
76451	46.2429423122801	2000
62127	0.547887929348919	2000
59297	3.33550007773111	2000
59650	78.9208202831307	2000
62554	0.129385824125963	2000
76507	1.4312017216982	2000
59293	2.45787690772766	2000
76375	0.4233788725019	2000
80415	1.48540861179622	2000
80673	0.337626905350148	2000
76157	29.7713533685882	2000
59076	0.518815085995178	2000
80015	0.152521203213456	2000
62607	0.12506891090226	2000
80186	3.38742139463584	2000
59168	7.60378205834503	2000
62028	0.994001248737044	2000
76756	0.379683101513137	2000
80456	0.855015239046018	2000
59303	3.64441884256121	2000
62548	17.0389259786448	2000
62882	2.25511693426823	2000
62379	0.622397416499725	2000
76435	0.917361227478554	2000
59565	0.956305447283939	2000
76442	0.923881007014997	2000
80784	0.593143006968385	2000
59317	14.4534154413794	2000
62776	0.281980483067722	2000
76488	0.87758777205342	2000
59156	5.07115877413781	2000
62705	3.55150384807411	2000
62702	0.640387913418025	2000
76686	0.740624400322954	2000
76717	1.31880083035823	2000
80685	11.1835164441809	2000
62319	0.355332068319679	2000
76501	0.215223000342427	2000
76606	0.258645487112	2000
80151	0.578085394104275	2000
59608	1.82211765246438	2000
62215	31.8482070027831	2000
62147	0.699531143224797	2000
80399	0.415580018754457	2000
62430	0.285742677292777	2000
62868	0.470641334666461	2000
80294	0.324034577011394	2000
62103	0.246336471655666	2000
76289	1.5769047372848	2000
80553	0.567132873487808	2000
80683	0.17798111878879	2000
62806	0.2108388662176	2000
62408	2.20086533781196	2000
80193	0.173924915136512	2000
76339	0.4511238575484	2000
76379	0.262277340420979	2000
76311	0.685844730956788	2000
80792	0.408301488744508	2000
62264	2.31351734575119	2000
62765	30.8650531973194	2000
62565	0.126565726844971	2000
62295	1.72971655262213	2000
59003	0.669749515061502	2000
76358	0.449985340038935	2000
59580	6.96739334453488	2000
62350	1.91753603095542	2000
62690	0.326859758220931	2000
59531	0.675511791899761	2000
76716	2.37837904467878	2000
62467	0.275055892505134	2000
62252	4.28665962177381	2000
80226	0.5234489024511	2000
80701	0.726151002813693	2000
76426	0.211381624168398	2000
80331	0.459580906862317	2000
80646	0.14875181235158	2000
62262	3.08301039256767	2000
59399	1.66444108586661	2000
80642	0.420373925621635	2000
62619	0.210436343281936	2000
59635	0.535068503336021	2000
76285	0.79093553229772	2000
59266	7.32883867327819	2000
59227	9.74245322202296	2000
59636	16.1601839550132	2000
76133	0.785007311731942	2000
59360	42.7623403790361	2000
76515	0.75956821634188	2000
76328	0.593738615158715	2000
80566	0.479537395064219	2000
62846	8.02313768400218	2000
59180	2.31725579534495	2000
76603	0.814030078085359	2000
62677	0.588523698003741	2000
59259	0.732275297541476	2000
62063	3.78494761828098	2000
76411	0.38679276951589	2000
80269	0.19304086048492	2000
59256	5.62046598669196	2000
62508	0.515550913580295	2000
76644	1.300776728713	2000
80014	0.105123098496063	2000
62716	0.857965848362982	2000
62346	0.276389089090368	2000
62372	0.258557485820046	2000
76296	4.51971413437256	2000
76461	0.506579596968974	2000
80291	0.45545180064815	2000
59390	8.19435580435424	2000
59615	3.8934166060311	2000
80410	9.19698951947894	2000
76517	4.5072454762151	2000
76253	0.910607033596837	2000
80171	1.03546098997164	2000
59188	0.209596982902738	2000
80381	0.0651048363875337	2000
76123	1.31012889025697	2000
76297	0.424123416064273	2000
62883	0.338592604908716	2000
62207	0.906475559536744	2000
76505	0.15206810918615	2000
62653	0.762117207505782	2000
62205	1.81669289846399	2000
76350	0.614725690439827	2000
80498	0.98665193751814	2000
59247	2.71328720607184	2000
62022	0.626287067722201	2000
80786	0.237179053801488	2000
59214	1.73224446283109	2000
62475	0.342265757961589	2000
62486	1.93309176131373	2000
62044	1.15891147080698	2000
59148	0.658042516859216	2000
76243	0.376640850872149	2000
62666	5.7431382272794	2000
59393	1.53134706703335	2000
59174	0.544238358639767	2000
80781	0.396189121968124	2000
62100	3.6349508416286	2000
80037	0.196039996022685	2000
59142	0.963706714513722	2000
76047	0.205598471410601	2000
59544	20.2865485118838	2000
62650	1.39256164576338	2000
80084	0.388782179315314	2000
62008	1.12936185559639	2000
76555	1.4572369264129	2000
76265	0.325876970119443	2000
80444	1.12584025241615	2000
62444	0.331310228067647	2000
80025	0.430589491925258	2000
59007	1.79895845061502	2000
62692	0.364883092179782	2000
62079	0.140523239087186	2000
62777	0.237723142816436	2000
59066	0.240741200946898	2000
59633	0.415809322510699	2000
80033	0.44242268185022	2000
76469	0.598762885847112	2000
62686	0.550473557806366	2000
76066	0.178527005898589	2000
62738	0.352034233679771	2000
76224	1.67703351718781	2000
59429	5.01033358013484	2000
59319	5.49116050582801	2000
59567	0.561604241564973	2000
59502	2.47332846730328	2000
80627	1.60690923615377	2000
59566	7.21874602021709	2000
62425	0.240001202202164	2000
59646	33.8707183512348	2000
76583	0.422899616612848	2000
80496	0.305591309777047	2000
59462	8.32953637742278	2000
62399	1.08802286443386	2000
80811	1.05530112877359	2000
76595	2.76812540896103	2000
76203	1.19780827440947	2000
59138	1.20991010819426	2000
62740	0.388645506451609	2000
59088	2.47202004026521	2000
62497	12.7988798451865	2000
59637	2.11932289845274	2000
76396	0.568435380926746	2000
62125	0.639253596894369	2000
62735	3.77732937259489	2000
76738	1.22488895043016	2000
62192	0.704268144697718	2000
62871	0.325528339007729	2000
59490	0.410336644343271	2000
76152	1.31111562110199	2000
62483	0.343445314233703	2000
59431	13.8355378699259	2000
62124	0.808996587611795	2000
76635	0.215307801126279	2000
80584	1.96845935639723	2000
59334	3.42273078857791	2000
80328	0.746171623233573	2000
80477	0.332721137820672	2000
62649	1.492016477731	2000
76260	2.77870014608405	2000
59074	3.76234712914341	2000
59065	1.59416547270999	2000
80767	0.387972127385364	2000
80252	0.393547402543207	2000
76406	0.482775270047603	2000
80353	0.210377068937617	2000
76231	33.1375746504152	2000
76274	0.0675023592936872	2000
62679	0.663878336384121	2000
80184	0.676072685801359	2000
62601	0.331724287543758	2000
62769	1.098011971847	2000
62418	0.46659806947465	2000
80062	2.43692075588837	2000
76594	2.10164514305965	2000
62563	13.6687485347274	2000
62057	8.30787305760502	2000
59315	1.60581458891701	2000
62909	0.7467080366384	2000
62213	1.24231410571656	2000
80058	0.514103997931163	2000
80342	0.632817515089962	2000
76364	0.344501214999222	2000
76049	0.432855389786682	2000
59069	1.17263028867873	2000
76483	0.300289185189715	2000
62717	1.19732391730079	2000
76407	0.392440836738031	2000
80018	0.448168743852885	2000
80654	0.928935145170367	2000
76075	0.762633499657578	2000
62198	0.581722443798312	2000
62231	0.162414027976875	2000
59486	4.91411588238137	2000
80721	4.28822648608145	2000
62423	2.76073999064536	2000
80187	1.19695256328039	2000
59628	0.822783462353308	2000
80632	3.60972479790694	2000
62502	7.00366795172299	2000
80664	0.28209712992626	2000
80648	0.157725389799498	2000
62415	0.651322440228839	2000
62646	0.998097579876806	2000
76282	1.63779262011854	2000
59452	9.64474060766914	2000
80753	0.186867837727908	2000
62427	47.5567152233569	2000
80662	0.431131283116108	2000
59329	8.47108458196767	2000
80116	0.434899555590543	2000
76547	0.880606075369328	2000
59500	0.646130475972994	2000
76143	2.0228754273352	2000
62035	10.1675325648618	2000
62656	1.6249596480422	2000
59077	0.475961217348842	2000
59075	1.21556548082507	2000
80585	4.17385869314068	2000
62291	5.59312714335061	2000
80050	0.828955347508027	2000
59253	14.308923282494	2000
62250	19.9848040807527	2000
80220	0.156959087348793	2000
76353	0.158878773870066	2000
76664	0.555612285302173	2000
80823	0.224012403356645	2000
76166	0.771995392239003	2000
62818	0.289318797764982	2000
76417	0.568913453242882	2000
59277	0.471297073074605	2000
80032	0.221370424024686	2000
62221	0.501338038736938	2000
59310	1.44733778669719	2000
80307	0.24250803604332	2000
76410	22.7075634741568	2000
59072	0.474210547521362	2000
76059	0.548162615597131	2000
76715	0.969886800021253	2000
80755	0.196441369821015	2000
59568	0.664607634954941	2000
62047	0.25518916748498	2000
80678	1.16030690274993	2000
76004	0.812284745922253	2000
59336	2.79076812154729	2000
76294	0.722222272604696	2000
76336	0.507567926981957	2000
80158	0.0905332554399487	2000
76251	0.738019629981443	2000
80425	0.148838116067337	2000
62013	3.57684840032512	2000
80195	0.218173440055276	2000
59392	62.5433693795332	2000
62522	0.393309180397275	2000
76690	0.904075330304135	2000
62142	0.205677087160503	2000
80809	0.645700862155846	2000
76747	0.548806151894707	2000
62082	0.428407177384399	2000
59483	0.286687311035707	2000
62847	3.99030235566706	2000
62268	9.14023075382966	2000
80008	1.2366410641161	2000
80513	0.24428161128627	2000
62519	1.05369304686397	2000
59618	1.50375187575471	2000
62542	0.296956575558911	2000
59542	0.791732408143046	2000
76621	1.49982390084338	2000
76153	0.55221012514378	2000
59039	1.06561458380714	2000
80314	0.261423245185363	2000
76091	0.253264361875591	2000
80020	1.07188511276561	2000
62050	2.87836833703047	2000
62850	0.587195087150018	2000
59414	9.01613854602787	2000
80162	1.14642697816269	2000
59509	10.968708865406	2000
62433	0.162047203080021	2000
59222	3.39758396379152	2000
80517	0.27116880272321	2000
80452	0.716199331845416	2000
62817	2.59943798224319	2000
62751	1.09895288214761	2000
80548	0.569884569708713	2000
62484	0.552211153278015	2000
62560	8.59356421251774	2000
59276	8.37452250062268	2000
59017	47.5987785359705	2000
62302	0.317419235857874	2000
59487	2.0008108632441	2000
80372	0.201360179171913	2000
59102	0.791093912962427	2000
62378	0.356068322581494	2000
80512	1.53252362925891	2000
62844	0.849251033255989	2000
62263	8.71645602763606	2000
80659	0.477511517659796	2000
62303	0.329448561434449	2000
80119	0.755406175321107	2000
76139	0.2756081778476	2000
80011	5.89122573218899	2000
59560	22.2746829251229	2000
76513	0.908670603575127	2000
76495	11.0479126804569	2000
62719	0.631088816710023	2000
76391	3.35931115900869	2000
76670	1.16090854973879	2000
62377	2.02169180042991	2000
62325	1.51191542205919	2000
80406	2.24811082953329	2000
76134	0.50923464817072	2000
62407	1.83858172194122	2000
62009	0.366729489061551	2000
59623	1.18008133295075	2000
62682	0.12461873691813	2000
76628	1.26879042081658	2000
80338	3.10438515558547	2000
80799	7.06557811197938	2000
76688	0.5701606341519	2000
59133	1.67802516395778	2000
80114	0.57311211175647	2000
80521	0.343703361716152	2000
62466	0.469946716051644	2000
59467	4.44919905136218	2000
62722	0.200677727744406	2000
80272	0.233629986133769	2000
80175	0.187991285758796	2000
59382	2.41546709897856	2000
76220	0.862732214036857	2000
76486	1.78666659778867	2000
59063	3.7055088992205	2000
80651	0.499045359455865	2000
80601	0.688120119497376	2000
80828	0.062914943827529	2000
62822	0.146824177574491	2000
80375	0.595989083049611	2000
62591	0.316598263437809	2000
76087	0.859320785319547	2000
80179	0.378752995902415	2000
76449	0.714174176152059	2000
59497	3.82383675093817	2000
76609	0.424728997457887	2000
59207	7.7947836018814	2000
62389	0.0641090685103616	2000
76597	1.41667647845233	2000
76255	13.7054146804802	2000
80436	0.781553867318189	2000
80461	0.398755837298817	2000
59182	0.448736499059115	2000
62402	0.524373898599854	2000
76380	0.572033010636271	2000
80371	0.141699455062526	2000
59517	1.19531880455375	2000
62544	0.333136787737811	2000
62255	1.23101855465975	2000
62095	0.429729681548351	2000
76511	0.262846105122767	2000
80588	0.623347042860125	2000
80728	0.0981190569121178	2000
80643	0.909315188892921	2000
62511	0.221058250353321	2000
76288	0.639614481086758	2000
80197	0.0544009553553572	2000
62164	2.19477126655564	2000
59387	2.75268799283163	2000
59454	0.773008629280203	2000
59419	2.41505036285047	2000
62742	0.401517968389921	2000
62866	0.58899347599763	2000
76062	0.337831993189093	2000
80681	0.488777220002605	2000
62485	0.600721482519814	2000
76755	0.852583987425386	2000
76521	0.238289304181008	2000
62492	0.385304098155034	2000
62085	0.26481114713876	2000
76309	0.215020322515826	2000
59554	0.737787286984941	2000
62210	0.036862505554466	2000
62760	0.477143418232927	2000
76009	0.373536516881852	2000
76748	1.04700724022772	2000
62151	0.76326710497616	2000
76161	0.175933074198824	2000
59364	1.37389059559766	2000
62182	0.327780251345345	2000
62171	0.211506731807544	2000
59257	1.55197873737444	2000
76108	19.6341595897545	2000
80565	0.127066493393497	2000
62390	2.32013855805288	2000
59129	3.29948031635099	2000
80141	0.5963831331439	2000
76284	0.462621651986908	2000
76674	0.522378017059372	2000
76741	0.479332407032433	2000
62795	0.170517772607166	2000
80486	1.0246199186624	2000
76630	0.333080036789801	2000
59389	4.67721171106896	2000
62093	0.3306947110391	2000
62860	0.244387007723768	2000
62741	0.27205742656708	2000
76703	0.351490729265841	2000
80568	0.488533653008638	2000
62027	0.363072002680175	2000
76382	1.75460503164612	2000
62261	8.06230702569726	2000
62700	0.384361961932256	2000
59302	7.25409976718669	2000
76272	1.6795317623512	2000
59205	16.7154107626513	2000
80725	11.9256415994075	2000
59473	0.471466325799186	2000
76067	0.854074572633604	2000
76462	8.53529436260777	2000
59363	1.61484952553859	2000
59165	12.5304549188013	2000
62727	2.69738552111868	2000
59405	0.766997249662515	2000
76651	0.39329644483007	2000
76432	0.369488585862197	2000
62647	1.27894749085234	2000
59645	0.882500638741731	2000
62450	0.388189745746835	2000
76680	0.317255065712885	2000
80504	0.089638545750284	2000
62746	9.29464843538975	2000
62065	33.5243545467601	2000
80318	5.51587698824446	2000
80125	0.0926216413968709	2000
62342	0.146733058522363	2000
80615	0.725075182721459	2000
59503	0.344517601353876	2000
59332	3.05074077541264	2000
59112	21.6576543727404	2000
76042	0.213790632240409	2000
62896	1.17318002255983	2000
76712	1.17634295483834	2000
62759	0.719789107422559	2000
62042	1.6883546668924	2000
62657	0.767085689303871	2000
62680	1.50048819289727	2000
62193	146.439152306786	2000
62223	0.438724232612614	2000
59115	0.859570618602147	2000
59537	0.834346891794967	2000
80760	0.63054121898439	2000
59132	1.68945472620154	2000
59289	2.67495954481617	2000
59668	3.0175853223006	2000
80785	0.876048903160459	2000
76620	0.384647909459766	2000
59249	24.0098874199753	2000
59625	0.705486145288013	2000
80330	0.426613801327586	2000
62339	0.203854988138631	2000
76623	0.181532700048556	2000
80274	3.4792150248309	2000
62289	1.41362928470659	2000
62505	0.722526009815584	2000
80285	0.439511164440015	2000
62023	5.20173461409111	2000
76286	1.09802235671767	2000
62131	0.558102679663336	2000
59083	0.364466577505407	2000
62696	0.284174655525091	2000
76368	0.53581084342342	2000
59159	0.929399033453221	2000
62480	3.98509742268855	2000
62218	0.554675376410378	2000
59096	2.48160487588969	2000
76012	0.402807001680818	2000
62381	0.288039076577736	2000
80369	0.320394707022315	2000
80200	0.313534960559207	2000
59372	0.864939474567936	2000
62143	0.0654804854050377	2000
59161	1.21596418539139	2000
80124	1.33461765128797	2000
80515	0.291814552748045	2000
59122	61.8644810951019	2000
62878	0.667108396173502	2000
80027	0.0357618145278974	2000
59243	1.95756996068782	2000
59272	10.9626823168326	2000
59441	1.10346932103867	2000
80346	0.256542744336819	2000
59640	1.17060312497761	2000
80740	0.482624538577606	2000
80223	0.135192675907152	2000
76362	0.485456652589528	2000
80645	0.863505307819124	2000
76173	0.646900126787421	2000
62033	8.32263890686736	2000
62461	1.43422125173223	2000
62500	0.691947967575935	2000
59282	0.640691483428236	2000
80771	0.101607069164583	2000
80652	1.03977444159962	2000
80325	0.119670942066918	2000
62343	0.430652845142306	2000
80677	3.35187377642596	2000
62804	0.586433795089036	2000
59603	11.7823554693108	2000
80127	1.36187242829955	2000
59527	18.8525902635117	2000
76151	0.424083523404149	2000
80042	0.149046809542486	2000
59573	0.190980734644662	2000
80140	0.181576567120567	2000
59294	0.951118525215361	2000
59613	2.43784654567505	2000
59534	1.37365328595987	2000
62214	1.00923416640799	2000
80625	0.903330495602282	2000
80270	0.0248220775861603	2000
76576	2.13669415713459	2000
62118	0.265214180088169	2000
62012	0.317862498637763	2000
76409	1.30145656949305	2000
62796	0.927683144144932	2000
62469	0.995473922302847	2000
76720	1.63721283858648	2000
76586	1.01931885813241	2000
80076	0.710295060776082	2000
62366	0.606707130802999	2000
59638	1.5586768672136	2000
59472	1.37973764657209	2000
80556	0.847165698651093	2000
76553	0.526116705749391	2000
80130	0.625874452313718	2000
76412	1.10605748726196	2000
62736	7.23661693234457	2000
59107	7.81417565296653	2000
59379	0.920708882012754	2000
76638	1.86212263914521	2000
76132	0.628446943537917	2000
80275	0.476369183460585	2000
62043	3.32994484041703	2000
59397	0.980698380268163	2000
76672	1.58398877573345	2000
80519	0.909083330898286	2000
62356	1.43797036821761	2000
76316	0.793406089442226	2000
62220	0.742484705573038	2000
62314	0.562310937892173	2000
80253	11.8932587268701	2000
80315	0.614961410248097	2000
80196	0.465469267966283	2000
59595	0.793489234803761	2000
76434	1.39652544026485	2000
62208	0.106549537179771	2000
59047	0.586222628543422	2000
76550	1.89415096357732	2000
62704	0.891921234034132	2000
62872	0.433432310977109	2000
59585	5.9733467797939	2000
80836	0.346490834516219	2000
62383	2.20824424189833	2000
76468	2.12730003329617	2000
62099	8.76319650596771	2000
76658	0.840955502277671	2000
62490	0.374672908685336	2000
76312	11.1838136653341	2000
80458	0.740074904545289	2000
62153	0.940094371979292	2000
59323	1.96626338319605	2000
62621	2.83363789047356	2000
62588	4.28344275944506	2000
76196	3.56361239604195	2000
62576	0.221779563606071	2000
80602	0.247307264295233	2000
62276	9.66026665669926	2000
80832	0.430749630785237	2000
62243	0.167129438354629	2000
80429	0.350645703679114	2000
62756	2.67321699998911	2000
76069	3.51407740415163	2000
62547	0.103269915538259	2000
62064	0.260049523307149	2000
62097	1.59590186188985	2000
76480	0.777892238177448	2000
59152	22.2062241513505	2000
76549	0.259610652454953	2000
80332	0.622747790817262	2000
80155	0.429737503335203	2000
76695	0.405219153278271	2000
62684	4.40529701605461	2000
80607	0.418634388532775	2000
80352	0.293109705616147	2000
59663	9.08576746089952	2000
62178	42.1217287980522	2000
62675	0.533274272676319	2000
59261	3.33336710582031	2000
80509	0.747056521919986	2000
80083	0.262960151400672	2000
59240	0.247734270429309	2000
59385	4.81837876468851	2000
62595	1.62253199160386	2000
59388	3.02989377430444	2000
80616	0.256524330861056	2000
62227	0.34219685356999	2000
62603	1.80186386699806	2000
76736	0.504209024061332	2000
62472	0.24093578091434	2000
62158	0.954536205804761	2000
62285	0.797816437124445	2000
80475	0.299190961581959	2000
62510	60.6838732129839	2000
62090	0.221026852917408	2000
62697	0.392210771887759	2000
80041	0.225006208273185	2000
59341	0.730463258363023	2000
76502	0.670393490936344	2000
80320	0.200637877161626	2000
62572	1.00019983385751	2000
80532	0.284487067755128	2000
80173	0.749290505861584	2000
62673	0.952093917775343	2000
62080	7.52510854476069	2000
62537	0.185490547770176	2000
62775	0.475248052425058	2000
80780	0.737548337984177	2000
80819	0.155062271883306	2000
62440	1.85236195135633	2000
80717	1.65130949521038	2000
62384	1.08758463700797	2000
62662	1.11395062413954	2000
76030	0.789071895458431	2000
76209	0.672796059138235	2000
62323	1.76111054828048	2000
80782	0.689063068487264	2000
80061	0.303490881841051	2000
80340	0.227896526973615	2000
80003	0.896066374125948	2000
76581	0.582636624871161	2000
59010	0.458863764370134	2000
59515	1.0890610423062	2000
80788	0.255361535550271	2000
59013	2.12975635062463	2000
59630	4.76299963761124	2000
62386	12.0435403061618	2000
59052	9.92927345043326	2000
80242	0.725628061789063	2000
62225	1.1982782608876	2000
62324	0.954364935016224	2000
62139	9.32180129606583	2000
80241	1.95541400087253	2000
80547	0.374014266546195	2000
62851	1.28323841662059	2000
62478	0.480274047786575	2000
62451	0.927620091670813	2000
62515	0.898537385774166	2000
62632	0.44003803944461	2000
76205	0.430067122817734	2000
76663	1.50077356575066	2000
62005	1.88588177365274	2000
62247	0.83503155702585	2000
62812	1.12117885172338	2000
62132	7.91151411927544	2000
62019	6.7620464916294	2000
62329	3.31063730219181	2000
80465	0.334709309691102	2000
62708	0.0577973277393612	2000
80117	0.253451976449485	2000
76650	1.80916766030041	2000
76711	10.579501731358	2000
80260	1.40124224429877	2000
62067	0.925368310909121	2000
62358	0.372154571180413	2000
59600	1.26684359633857	2000
80680	5.27509830991092	2000
80100	0.859527007824708	2000
76214	0.385180051773618	2000
59301	7.37032066687455	2000
62538	0.621372164798034	2000
59605	2.02112640796655	2000
59599	180.489337944936	2000
59325	1.48231655794359	2000
80199	0.861494536124351	2000
80273	0.624590894252459	2000
59408	2.4084070435856	2000
80438	0.888019929790224	2000
80234	1.38688962375152	2000
62375	0.209207597133618	2000
62503	0.502291241544531	2000
76425	0.353742936638551	2000
59314	5.51085240921833	2000
80527	0.505908875666744	2000
62245	0.88477771490253	2000
59170	9.37212442507723	2000
62148	1.61242347635193	2000
62154	0.983870421341311	2000
80292	0.160938358224243	2000
76478	0.284151755917968	2000
80298	0.746253760907909	2000
62410	0.347507208956141	2000
59311	0.917559535992611	2000
62725	0.182033708358672	2000
80243	0.0681153975317153	2000
80282	0.861896423983154	2000
62298	0.859963798494795	2000
62734	1.17033186187446	2000
76221	0.257011306507815	2000
80656	1.95558734478049	2000
80412	0.746216164816812	2000
59217	0.532738541949711	2000
62025	3.44962981736568	2000
59553	9.39506255629257	2000
76709	9.70171376981216	2000
76367	4.051581769649	2000
76604	0.367736993785247	2000
80265	1.09191053652948	2000
59176	0.488167610863412	2000
59521	0.743459767260685	2000
76733	0.405553313130451	2000
76721	0.492849331628592	2000
62592	0.723833893830908	2000
59453	1.05260533196515	2000
80647	0.445171577190438	2000
80391	0.0953771669379549	2000
80414	0.208411466912207	2000
76171	0.134967785158162	2000
59098	7.97444020094186	2000
76005	5.5656098080814	2000
80820	1.19984581162832	2000
80822	0.191436840777989	2000
80154	0.370156772963874	2000
76540	247.868005675196	2000
80507	1.79134458690869	2000
62439	0.652602994958188	2000
80726	0.448037388193125	2000
59032	17.5592531499634	2000
80516	0.367207775046283	2000
80245	0.459004795441302	2000
62353	0.477083028259444	2000
80109	0.641208042655301	2000
76682	1.13759547590749	2000
62038	7.27407617582032	2000
76341	15.7275789096129	2000
59181	0.999270007047112	2000
80830	0.299478664048153	2000
59094	12.6237364853648	2000
59021	3.39537242345985	2000
59631	3.54391095763417	2000
59053	6.5229804176123	2000
62055	0.774992749908552	2000
80770	1.14766949865175	2000
59492	0.999290973130567	2000
62774	7.55506152325886	2000
76233	0.227933763567075	2000
62253	0.220363696603545	2000
76744	0.348142407340738	2000
62629	0.343009014703433	2000
62104	0.484326415985423	2000
76035	4.31376493976074	2000
80266	0.473919545812919	2000
59551	2.25731213938909	2000
59137	1.39932243406703	2000
59244	2.91315803694705	2000
62265	1.86107163912894	2000
80142	0.262021541033694	2000
80593	0.395135663791823	2000
62071	0.563712731641632	2000
62802	0.312252874014486	2000
59563	0.448988542175365	2000
59307	1.70585711639806	2000
76648	4.15435335096856	2000
80047	0.860751215626977	2000
80711	3.73617801193466	2000
80493	0.38987232862133	2000
62380	0.538488791713155	2000
80185	0.494733313620658	2000
76351	351.751880940679	2000
80518	0.594533161752983	2000
62620	2.61002107870863	2000
76698	0.801243701855671	2000
80417	2.48942268323298	2000
80827	2.65208551233456	2000
80835	0.409502709733334	2000
59327	12.1796173825687	2000
80798	2.34139237557209	2000
62858	0.426641686167057	2000
76165	17.6479763547068	2000
76754	1.72911705011291	2000
62821	0.501101549557946	2000
59482	11.5167779817907	2000
59049	0.739774978008656	2000
59210	3.67539405121357	2000
80618	1.63378555474533	2000
80748	0.392113442935872	2000
76484	20.7471014604275	2000
62771	19.1422813395298	2000
76234	0.895216604129995	2000
80316	3.8769276373641	2000
76020	1.87185402896569	2000
62580	0.722414353857076	2000
76474	13.4608194652623	2000
62671	0.513606575421292	2000
80357	0.358601011634271	2000
80757	0.269665562892489	2000
59099	2.98764576672258	2000
76503	2.09521985770956	2000
80138	0.16727062655764	2000
76155	0.497992727756825	2000
62854	0.671077051328835	2000
62316	0.294014543007336	2000
62552	1.42953554503573	2000
80055	0.265230669549048	2000
76141	2.07697697945344	2000
62543	3.32053459487233	2000
80718	2.6784366598101	2000
80106	0.294173511566151	2000
62341	0.78175782657192	2000
76422	0.479714847825022	2000
76223	0.852677960930088	2000
59374	0.757249315129014	2000
59602	1.83841739684102	2000
76275	1.90504462414027	2000
80164	7.51705940660964	2000
59481	8.65818237036998	2000
62020	0.836470925547375	2000
76144	0.293366812869398	2000
76490	1.80496878310064	2000
59232	0.64818249779072	2000
59391	1.47366952333279	2000
80313	0.554436445242323	2000
62489	5.91114573043434	2000
59162	1.00434219680094	2000
62703	0.503815263951598	2000
59252	4.26222173050417	2000
62331	1.98333869657234	2000
62172	0.431364437933376	2000
80408	0.588787898358015	2000
59093	0.554700915563261	2000
59163	38.9385368380911	2000
80013	3.79693825319424	2000
80036	0.936828906142788	2000
62091	0.14430127924464	2000
62820	1.44754846566322	2000
76086	0.325741133870097	2000
59579	2.29537371139484	2000
80229	0.531031653784642	2000
62230	1.33022259119279	2000
80206	0.187577910356886	2000
76516	0.703457541505042	2000
62368	0.322005722347923	2000
76459	0.562933598577334	2000
80706	3.41754621602901	2000
80096	1.73810249984081	2000
76238	5.12039490480621	2000
59036	9.63203088238166	2000
80396	0.540123925270471	2000
59383	22.0119822748276	2000
59641	3.29695984744456	2000
62054	1.00180809160134	2000
62711	5.03368459879831	2000
76471	1.45674364336788	2000
62174	2.44151925873848	2000
80040	0.319421212940419	2000
62614	0.745115616019299	2000
59150	0.9157324902611	2000
80327	0.231317568259956	2000
59145	1.23661147846236	2000
62721	3.00180369457325	2000
59504	6.22351366578423	2000
80104	0.21917887908451	2000
80336	0.146502719122099	2000
80617	0.322832139365415	2000
76538	0.485220536400131	2000
62587	19.89387052339	2000
62288	3.14823736090524	2000
62349	2.02887591807911	2000
62815	0.327344231196626	2000
62260	0.502984085687778	2000
76487	0.544207304724808	2000
76427	1.47331706711593	2000
80491	0.117713237730742	2000
59444	1.7233674018563	2000
80608	0.510310084596191	2000
59425	0.444557871669941	2000
76193	0.58686639863603	2000
80098	0.164677133579844	2000
59271	46.2574480831866	2000
62590	0.0892943965218295	2000
62336	0.778393285944051	2000
62637	18.6727550896643	2000
62362	0.487393455319124	2000
76112	0.491901298805528	2000
76564	0.435568298715285	2000
80378	0.100358339918425	2000
76039	1.95759924063041	2000
76725	0.925823752352785	2000
80699	0.181870438950662	2000
80301	0.356053293254813	2000
76283	0.371145248515601	2000
62037	4.51359514079274	2000
62661	0.849115554620215	2000
76369	0.886079640924413	2000
80810	0.198638946884486	2000
62076	0.307382345881089	2000
59194	2.3599980523403	2000
76535	0.777698104363246	2000
80488	2.77139778363149	2000
62562	0.319435642399584	2000
80349	0.221388772147407	2000
80470	0.337078885422194	2000
76167	2.2264532850259	2000
59649	0.428861653393708	2000
62406	0.430186036716876	2000
80248	0.642997750858786	2000
59357	3.998940643698	2000
62400	9.16313410899195	2000
62652	2.74784321659623	2000
76567	0.319684998648122	2000
76210	0.892535952539087	2000
80224	0.184147421088243	2000
80146	0.300747356953468	2000
62395	0.228933905260507	2000
59586	10.1267645754296	2000
80734	0.358279733687486	2000
62556	0.577956890599059	2000
59576	2.50692816295671	2000
80604	0.114848946001795	2000
62128	7.08587720812003	2000
76024	0.279805179942876	2000
76217	60.9411888902377	2000
76706	0.945872756177135	2000
76523	0.367530988561577	2000
76689	0.707606620114316	2000
76077	0.298668303111815	2000
62266	0.0998180180066943	2000
62793	1.76134560531128	2000
76654	0.599174890907857	2000
76724	0.185929636312774	2000
62397	9.73385098112945	2000
76185	0.22146130689484	2000
62286	0.751665038981097	2000
62714	1.36138493765893	2000
59333	0.474123364921277	2000
80803	0.380454605853174	2000
76183	1.26808770350458	2000
76388	0.700533864085314	2000
62855	0.347115703032748	2000
62549	1.90999545956504	2000
62058	0.348709607899619	2000
62015	0.328487542607096	2000
76163	1.15088244385908	2000
76401	3.32815414702235	2000
62638	2.24210566191641	2000
80670	0.926551489383946	2000
62039	1.34372612347088	2000
62816	0.37942446673149	2000
59171	0.0775193928510599	2000
80021	293.402224260014	2000
62669	0.45318645488077	2000
80737	0.285126564212548	2000
80054	0.491759834475236	2000
62199	1.15949392912624	2000
59203	2.4642049666222	2000
80668	0.303489956165746	2000
59316	6.43408286671735	2000
76562	1.38518859151305	2000
62612	0.761031726329083	2000
80016	18.0596432769809	2000
80746	1.88318492225069	2000
62863	6.57449550963714	2000
59054	1.63406958927414	2000
76714	1.20941659034348	2000
59190	1.46771508343595	2000
62561	0.327484069898654	2000
76679	0.145131133247313	2000
59062	0.310205917640295	2000
80123	0.664908312287878	2000
62315	0.52293607717966	2000
80355	0.145526220366363	2000
59435	4.22615228909504	2000
76735	0.958913600276546	2000
80367	0.255387555677069	2000
76531	0.512394205860532	2000
80611	1.40787957066816	2000
76632	0.623760013448805	2000
80237	0.828483796538265	2000
76728	1.65531417857759	2000
80159	0.400740474109296	2000
59134	1.93266188428335	2000
76010	0.546137665513859	2000
76446	1.67979635929826	2000
62135	0.536785353773773	2000
80529	0.363583870915148	2000
62180	0.46120686390501	2000
59343	11.3362290755344	2000
76175	0.390188686505183	2000
76245	2.50890225871721	2000
59084	3.53362020304437	2000
76241	0.205427333021899	2000
80152	0.205766654531276	2000
76384	17.6027789539504	2000
76646	0.984357305412715	2000
76519	0.142120513620797	2000
80067	0.264273451333756	2000
80299	0.360271637914801	2000
80213	0.872661373874941	2000
59079	14.0645119654019	2000
76170	0.174009184570014	2000
62107	0.546229604616101	2000
62269	1.23599750906807	2000
80276	0.50928383603776	2000
59312	1.18482455956575	2000
80403	0.336605853109997	2000
62365	0.283644317715536	2000
59498	0.589850306213805	2000
62688	6.70392585417005	2000
62770	5.67659491985084	2000
62257	0.887489460062618	2000
62184	0.372573564614802	2000
62773	5.94127878534552	2000
76088	0.936358487027704	2000
59085	0.601695974861962	2000
59279	35.6913670520591	2000
76719	1.62786168107361	2000
62479	3.05962350370349	2000
62904	0.883573649757076	2000
76708	1.2255553437295	2000
76559	0.922042583470149	2000
76060	0.792123244619384	2000
76439	0.585481989982023	2000
59457	14.2166451958298	2000
76510	0.247057604147343	2000
76040	0.376397902676335	2000
80423	0.660435695042491	2000
80694	0.518239934674093	2000
59456	11.2543441330345	2000
76029	0.361392641684908	2000
76298	0.76672689228657	2000
76743	3.19451712353306	2000
80750	0.318119170998768	2000
59183	151.599725115862	2000
80306	0.211044872176099	2000
62061	0.478798523868124	2000
76565	1.91651193564784	2000
59218	2.40930245511745	2000
62458	1.80168007547437	2000
76737	0.98877217632106	2000
80692	1.64665314944084	2000
80577	0.289043938516751	2000
59344	4.57896425689506	2000
80469	0.266277075101986	2000
76211	0.393625959448587	2000
80341	0.606573527418487	2000
59416	4.66154756218051	2000
62165	0.36135266958515	2000
62138	1.21759175124164	2000
76624	6.36632677880492	2000
80145	0.252340712088939	2000
80806	0.690157431628904	2000
76518	0.878281597490292	2000
80297	0.072707723478795	2000
62529	2.42794627393614	2000
80303	0.662058631866767	2000
62242	0.167549198191327	2000
59653	14.0287265832389	2000
80153	0.208151657920183	2000
59151	2.90057783464428	2000
62202	0.935779392164781	2000
76074	0.102680562179117	2000
62894	7.97701498076171	2000
80460	0.110659493414663	2000
62155	1.01141969874462	2000
62845	0.566845007645914	2000
62374	0.27750401714958	2000
80473	0.407657147722442	2000
76759	0.720414867828413	2000
80663	0.597510558370565	2000
59033	17.4661179312899	2000
76291	1.56041966832309	2000
59331	6.5249900342013	2000
59493	0.445947930244021	2000
62363	0.767345956852492	2000
59463	1.53869923825992	2000
62521	0.351720516724482	2000
62706	4.33385048872634	2000
80579	1.3808671811853	2000
80467	0.312791366780736	2000
80443	2.57586568451515	2000
80379	0.904077249121301	2000
62251	0.800603901484067	2000
76182	0.377571855834595	2000
80459	0.13498652050302	2000
76691	0.386499416063779	2000
62839	1.87444470397979	2000
62772	0.806100681779072	2000
76473	1.06137209000063	2000
76101	5.54537326536608	2000
80542	0.972088325435733	2000
80729	0.275390483194761	2000
62277	5.8683602131637	2000
80743	0.25690094296441	2000
76416	0.42742075993299	2000
76590	0.638153595493105	2000
59656	8.1543965475395	2000
80613	1.10648351320247	2000
80468	0.255913104573981	2000
59034	4.34250975714262	2000
76325	0.756151410424806	2000
62645	10.6291663519424	2000
76556	1.68123210463291	2000
76232	0.959897027930681	2000
80300	0.168387003709622	2000
62309	2.78438171876191	2000
80485	1.42186818580007	2000
80559	0.278042389340726	2000
80078	0.819399978791379	2000
62597	0.466993857635431	2000
80605	0.395184701699972	2000
62112	0.808063120863415	2000
59455	1.75331610827944	2000
62799	1.00596789382851	2000
80386	0.329244358798604	2000
76666	0.71627790642587	2000
62116	0.296003003873585	2000
76415	0.444269602091269	2000
80368	8.27197788576997	2000
76177	0.419052910703955	2000
62670	0.768107672227333	2000
80148	0.63886392803693	2000
59141	0.944583760701734	2000
76204	0.337496830363381	2000
62609	2.25056797891257	2000
59442	0.410380045396057	2000
76120	0.729100987931782	2000
80339	0.236285287000109	2000
80620	14.5990271121547	2000
80344	0.252249320040817	2000
62241	0.460190421460059	2000
62096	0.979474188873207	2000
59025	2.76360541597652	2000
62568	1.03376180308075	2000
80190	2.2951148927411	2000
62137	0.187038909089435	2000
80777	0.210206208958289	2000
59520	2.64323805701473	2000
80023	0.413979023720228	2000
62438	0.856545111495505	2000
59559	2.96873369850676	2000
80022	0.332462281907808	2000
62344	0.178953371908872	2000
62419	0.277908011019759	2000
59255	0.899949513874316	2000
76064	0.725464560146073	2000
80077	0.625248273322748	2000
59543	2.24262701854122	2000
62190	2.28537576059384	2000
76477	0.670123431369004	2000
80754	0.488689351237869	2000
59045	0.295926653582889	2000
62293	0.319308450268523	2000
80089	0.41160312322017	2000
76015	1.02654259394003	2000
62633	0.412695487095012	2000
76045	0.659590047045948	2000
76248	0.613209100431108	2000
59523	4.52606769178783	2000
80079	0.516441350909301	2000
59588	12.7863688844131	2000
80156	0.568757099275735	2000
80698	0.39535538148827	2000
76371	0.0783702514306684	2000
80048	0.0893531239700245	2000
59177	1.94724195555537	2000
59169	0.442823689422893	2000
62801	3.97258056565741	2000
76408	1.74118843239339	2000
76500	0.74576388388977	2000
80139	0.115054376265599	2000
80779	1.42172761326603	2000
80805	0.251505441205128	2000
59443	0.514126412337823	2000
59386	19.4705388386593	2000
59046	1.22082645464867	2000
59015	4.89179597609499	2000
76019	0.687948517704055	2000
80794	0.100550053203789	2000
59660	4.97669796102566	2000
62693	1.70690719993198	2000
62781	0.749610704257132	2000
76071	0.717828501331596	2000
80038	0.244515419439077	2000
80464	1.56054833758292	2000
62183	1.45474099872354	2000
62506	2.53514002312893	2000
80401	0.220084077019175	2000
59353	0.64850789281526	2000
76398	1.07512434152396	2000
62487	1.87607377486077	2000
76126	0.466575506967698	2000
62006	0.524032342868683	2000
76662	0.163130686526326	2000
76138	0.550179043214522	2000
80826	1.26007968936114	2000
80557	1.10235751283577	2000
80596	0.274042785245726	2000
80722	0.976426814759369	2000
62239	3.91904006155279	2000
62434	0.240711488665336	2000
62622	0.343556152800147	2000
80514	0.175543401851679	2000
80122	0.809012291838529	2000
62658	0.204880950335302	2000
59480	1.49607049415325	2000
76125	2.25254532686261	2000
80017	0.689840893011105	2000
62864	1.09558845344903	2000
62668	0.286027438883186	2000
59265	3.6879937965836	2000
80665	0.235541271806076	2000
76116	5.437969151189	2000
76758	20.9649306817831	2000
80305	0.783416770376219	2000
76676	1.02173213371174	2000
59014	26.1688988301178	2000
62726	0.249630866695543	2000
80366	0.794571479055416	2000
80600	1.25774566916852	2000
76454	0.178427105383848	2000
80068	0.290966386656103	2000
62577	0.104569398861926	2000
76033	0.662150551633945	2000
76082	1.07845553895808	2000
76025	0.666325938769431	2000
76135	1.69617156863702	2000
59396	1.05884138205938	2000
80551	0.194582209407479	2000
80562	0.345638218681614	2000
59120	2.95565563335406	2000
76361	1.10244154082778	2000
59090	17.5295696931119	2000
80230	0.573199273503072	2000
59104	6.03871834227779	2000
62301	0.0725097442135154	2000
80546	0.903709716809003	2000
62594	0.620111713714053	2000
62905	1.17709614037578	2000
59488	4.20755931078274	2000
59598	6.93570997534405	2000
76105	1.31721310618521	2000
62723	0.345304109123941	2000
62664	0.395226906945702	2000
76158	0.50257712603952	2000
62048	19.9116245871066	2000
59584	1.57804552422376	2000
59529	0.716461444682883	2000
80730	1.33810377814794	2000
59428	6.95700487313309	2000
59128	2.66827177318618	2000
59136	13.1959755532008	2000
80044	0.650397505537809	2000
76342	1.09427886035325	2000
62678	0.941799893436886	2000
76236	0.563188967538164	2000
62842	13.4007042331698	2000
62857	0.237504097379011	2000
62463	0.856841700723314	2000
62233	1.63015326060279	2000
62168	1.00765023886998	2000
62834	0.398506057439323	2000
80752	0.827930483705855	2000
62608	0.297609444530989	2000
59664	0.471172862776398	2000
59204	0.786502615321344	2000
62121	0.206567697908792	2000
80449	0.164122327669266	2000
62145	0.748959234291076	2000
80324	0.236615093810132	2000
62457	13.6329814246759	2000
76546	0.4054495915667	2000
80450	0.17675400569323	2000
76669	0.619759031515968	2000
80479	0.476658632917307	2000
59023	0.857538579725364	2000
76512	0.0539549863152771	2000
80212	11.4176077822045	2000
62683	0.421787818976464	2000
59111	0.504307650669049	2000
62701	0.70971846931981	2000
80829	0.193205828723403	2000
59179	19.9117831083764	2000
76705	4.09305254858761	2000
76174	0.512135739236834	2000
59286	27.6943531909736	2000
62186	22.2137730960018	2000
80259	0.174453272748094	2000
76028	0.340623268967944	2000
76655	8.29332465678042	2000
76472	1.01084208736628	2000
80834	0.89000400164623	2000
59055	0.989254549640763	2000
80233	0.256501598583062	2000
59348	2.15295915574619	2000
80622	2.40672549212037	2000
80046	0.0822834975771993	2000
59512	190.540195100057	2000
62599	0.297823810835087	2000
59407	1.05445376900967	2000
59117	1.49902543822716	2000
59437	1.63798916847085	2000
76304	0.488047722995944	2000
80520	0.267508975789926	2000
62089	0.637996472202363	2000
80304	0.171133587694389	2000
62235	4.24982463480499	2000
59418	2.91905926975539	2000
59008	18.1221345696452	2000
76156	0.440927547367267	2000
62081	0.844585614143326	2000
59042	2.38519364721611	2000
76668	0.593190351931705	2000
76095	15.276322003284	2000
59158	4.0961164262983	2000
59067	7.50291743221702	2000
76656	1.23219154007314	2000
59406	0.907777354255426	2000
76399	0.269509976093966	2000
62069	0.487834204679643	2000
76645	0.251708815114511	2000
76269	0.267452438138127	2000
59590	1.51317745452625	2000
59670	2.17218111291841	2000
76418	1.55728770242681	2000
80308	4.30552310320151	2000
80030	0.300224220757835	2000
80166	1.15058074082873	2000
59135	4.0066141155512	2000
80312	0.411427223404963	2000
76530	0.22136271988472	2000
80573	0.553715483642286	2000
59514	7.4669370234416	2000
62732	0.489493847965126	2000
80002	0.418460820386775	2000
62539	0.474756958057592	2000
76447	30.0375588355508	2000
62767	9.37038633280305	2000
59350	527.378475994013	2000
76345	0.393675130798996	2000
76520	1.07766918193029	2000
80209	0.625294107296914	2000
76360	0.900832797272081	2000
80634	1.41447022656441	2000
76190	0.428105473784406	2000
80708	0.334069762111257	2000
76667	0.612171053108315	2000
80295	0.563844518894096	2000
80580	0.361833168364641	2000
80024	1.02383215337942	2000
80495	1.00409636484054	2000
76355	1.71548447900984	2000
80554	1.47305577835434	2000
80676	0.258480164338795	2000
59178	83.8659123562925	2000
59499	2.86996415600866	2000
76315	1.66259827690785	2000
80703	0.28352036961587	2000
59246	0.936614973440089	2000
80674	5.76766177690987	2000
76212	17.8597430705195	2000
59458	1.36345026058113	2000
59130	1.98321619595607	2000
80092	1.14200384836006	2000
80354	0.257940738640474	2000
76129	0.337931443698908	2000
76430	0.235215497734908	2000
76570	0.346459170053624	2000
62518	0.22583382863519	2000
80232	0.357074899854157	2000
62699	0.90799394561097	2000
62204	2.65446512404619	2000
76084	0.194548593854966	2000
76335	0.128878909455428	2000
80603	0.430349061288458	2000
62436	0.282676569289581	2000
76421	1.32718259103624	2000
59612	0.890062359199672	2000
62907	16.2773112797096	2000
80053	0.135321615499564	2000
59024	8.10386124909541	2000
76463	1.09121504292746	2000
62369	0.862548321945612	2000
80422	0.795316427403523	2000
62041	84.0374079689903	2000
62810	1.86868766717769	2000
62516	18.0121136468222	2000
59370	1.24564974466844	2000
76710	0.160274466405988	2000
76413	0.935627789006291	2000
76032	0.150153614798336	2000
76424	0.308643541495363	2000
76366	7.75036120715711	2000
62122	0.613839302026201	2000
62843	0.359169091434448	2000
80801	0.583913146064631	2000
80057	0.117738585317612	2000
80561	10.8490144976851	2000
76615	1.12419424269595	2000
80161	0.331437428099089	2000
80778	0.200464268118337	2000
76684	2.37242265457939	2000
80393	0.530935224915142	2000
76271	2.6971190156713	2000
59058	1.80192913442876	2000
59121	0.780940412709614	2000
76092	1.22803748555648	2000
59570	1.52513556811634	2000
62146	0.510693361732537	2000
76314	0.996878084324019	2000
76528	1.08552798726682	2000
80177	1.17688772805788	2000
59187	0.470117144887156	2000
80004	0.841730666022592	2000
62308	0.743672817870387	2000
62761	0.334879786635064	2000
80769	0.42444825770017	2000
80535	0.284020917794981	2000
59283	0.924897382440091	2000
76678	1.1281012780633	2000
80329	0.272997099750585	2000
59309	6.75959714335354	2000
76305	18.3819085828313	2000
80039	3.19776935890283	2000
76525	0.625852429234722	2000
76634	1.31440766294791	2000
80319	0.558018474484035	2000
59470	3.57371575069034	2000
80432	0.170687029502899	2000
59596	0.735962954282159	2000
80774	0.404885282048469	2000
76610	2.69548702632653	2000
80361	0.137164982540817	2000
80073	0.296028609798138	2000
76318	1.16304713713717	2000
62105	0.875800181120091	2000
62598	0.994301971843308	2000
80120	0.874806220152965	2000
80219	0.094793474877425	2000
59522	3.16313651449362	2000
62052	0.600202037731467	2000
59143	14.4214943826264	2000
76394	0.985132356203315	2000
80343	0.302505355192658	2000
80278	0.271349359504788	2000
62189	0.159770922256634	2000
80494	0.319697260491486	2000
62234	0.296726634375631	2000
80293	0.672126119983604	2000
80427	0.548506715535277	2000
62745	0.176100897311127	2000
62157	0.120009592108078	2000
80362	0.461633033833922	2000
80787	0.122971900033904	2000
76470	1.04793800807816	2000
76534	1.93385391479298	2000
80402	0.175619493291847	2000
76359	0.20263209532716	2000
80572	0.541735091825717	2000
80679	1.01246729829183	2000
62351	12.2604050966663	2000
62805	0.378760145023494	2000
76542	0.341294841077413	2000
62140	0.732224433519874	2000
62240	4.02655743937373	2000
76378	2.90378403174122	2000
80383	0.102699204795099	2000
62790	0.289284987847122	2000
62348	0.224043756958788	2000
59103	0.860563335531675	2000
62617	21.7414446086129	2000
62398	0.453468510491625	2000
62778	0.120448189623075	2000
80180	0.16435925787272	2000
76128	0.790374697932289	2000
62663	0.45170491141495	2000
80102	0.694103172642631	2000
80350	0.890549385723335	2000
62292	1.426297682766	2000
80351	0.409130861144073	2000
59229	0.997465908189607	2000
59224	3.24240741721854	2000
76200	0.854890078488191	2000
76280	0.212277931171333	2000
80107	1.01135130570806	2000
62403	2.38753977177076	2000
62782	0.791441134714573	2000
62880	0.338852178894421	2000
59421	23.1737832570837	2000
59659	5.7893089423983	2000
62126	16.6027146908258	2000
80714	2.19044301279707	2000
59368	45.261681157896	2000
62163	0.345017457106786	2000
62730	2.36895334895872	2000
62474	1.96057829039404	2000
62865	8.29540600752165	2000
59489	7.2407028929717	2000
80675	0.17749588829023	2000
80776	0.330345443863764	2000
62488	1.08977185402723	2000
76428	0.0312858704374475	2000
80735	0.296659074256687	2000
80182	4.51088349002147	2000
76573	0.878078834266151	2000
59175	0.632937435700606	2000
59116	0.598595627162881	2000
80222	2.46789126902417	2000
59127	0.264814496044221	2000
62259	2.24509893433424	2000
59057	0.936258719868669	2000
59071	3.77698569804148	2000
62530	0.852908669483035	2000
80614	0.444761252083115	2000
80638	0.171858432210724	2000
76641	0.348247149426937	2000
59365	13.3971195561326	2000
59398	3.82972028714583	2000
62525	23.2504502811692	2000
76626	0.601732369627394	2000
76083	0.180849528480443	2000
62296	0.315902333386056	2000
80472	0.248921764922078	2000
76607	0.499155218523534	2000
59296	0.549961127070411	2000
62029	0.799648491417681	2000
62109	0.40804412490902	2000
62715	0.474526075300797	2000
59213	0.811685010441787	2000
59197	3.46702452361957	2000
76131	1.44511016198527	2000
62456	1.20927918004919	2000
76213	0.576066569588292	2000
62636	0.415430787741802	2000
59427	1.09899432926115	2000
59321	1.31334962644656	2000
76178	11.2684137811717	2000
62156	0.967678660721747	2000
80110	0.775068183838511	2000
76683	0.588069930638828	2000
62074	0.456263054056642	2000
76481	8.59684461537694	2000
62338	4.07935926197249	2000
59384	2.42963647038783	2000
80672	1.14663010263976	2000
80595	0.459926011142197	2000
62729	0.458320196422353	2000
76168	0.0613120796116031	2000
80800	0.249165252826717	2000
80231	0.207068210666342	2000
62694	0.339746211192072	2000
76094	0.394801344521815	2000
59667	0.347406039864041	2000
62177	1.2311771706366	2000
80284	1.25293706308429	2000
76013	1.31348536087503	2000
76616	2.6806382524716	2000
62764	10.823953153508	2000
59155	41.9347194752933	2000
80587	0.152793240841238	2000
62278	0.759986267494763	2000
62203	0.815529828263702	2000
62733	0.425417799757847	2000
80563	0.106284361992245	2000
62574	0.36114702832984	2000
76104	0.423205677002303	2000
76352	0.472332180343706	2000
59548	1.10604398107614	2000
59433	1.76241158864785	2000
80176	0.418871977890852	2000
76090	1.8615156765474	2000
80404	0.200141504119349	2000
80387	0.520079766441723	2000
76240	1.37385067110463	2000
62060	4.94383382330689	2000
62307	0.497865027079269	2000
62476	1.43119283288189	2000
62512	0.909091330479105	2000
62246	0.2691919660005	2000
76154	0.907916451389262	2000
59274	0.76801798742589	2000
76381	0.216218701182371	2000
76732	0.432420861169075	2000
80575	0.147310995089714	2000
59609	2.75679315149818	2000
62856	0.5202393615067	2000
80640	0.403559215043973	2000
76050	1.61416294749903	2000
80335	0.440986585582916	2000
80476	0.641670049025114	2000
80424	0.727205344841106	2000
76034	3.21508387143348	2000
62832	0.818114210270457	2000
59211	1.30693793610912	2000
76613	0.938292562707803	2000
76593	0.966479174672954	2000
80238	0.71508110224961	2000
80261	2.13814727129495	2000
62731	0.504262225917438	2000
76159	5.81664876863555	2000
59060	0.335921604330835	2000
59160	8.28703184882994	2000
80433	0.0786008126534386	2000
76022	0.64749006580994	2000
62897	0.882966920078556	2000
62115	0.805262072735394	2000
59048	0.81694775134303	2000
62361	6.55208240600968	2000
59339	16.8720554410333	2000
76348	1.0242349565597	2000
76160	0.483299312580092	2000
76665	0.695351139565412	2000
76734	0.690923743365444	2000
76423	0.278459501561944	2000
80428	0.205733443205647	2000
62032	7.43699163871443	2000
59242	1.15926633193765	2000
80108	0.101224427888141	2000
80691	0.653084484205426	2000
62133	15.1715896658848	2000
62744	5.69157067571048	2000
80813	0.127924655060893	2000
62628	12.302338399225	2000
59250	3.48404674932329	2000
76308	0.630512862431521	2000
76016	0.237578939858775	2000
62893	12.726889914671	2000
80035	0.121658183601084	2000
80380	0.391578487830617	2000
80812	0.282352942209003	2000
62551	0.455688453559974	2000
80034	0.995619533441132	2000
59616	18.9735924201242	2000
80070	2.09670844139535	2000
76429	11.098212495177	2000
62062	0.0691085911330936	2000
59091	0.982885359032767	2000
62179	0.53689633619277	2000
59538	0.726242055599327	2000
76121	0.527769821021693	2000
76730	0.161451254362983	2000
59287	0.352687905242126	2000
62036	1.26253189618116	2000
62875	2.17213004196099	2000
80693	0.46547090509975	2000
59070	0.553248439268072	2000
62413	24.0269203913852	2000
80462	0.515743437822066	2000
62393	1.597963532284	2000
62371	3.55960165763275	2000
62317	0.652469782155852	2000
62748	3.78920433386231	2000
76400	3.40521596529488	2000
76508	0.598113860729526	2000
62272	0.567220051403148	2000
76386	0.58279577317639	2000
62861	7.5356755413239	2000
80576	0.416642664835587	2000
62345	0.166827820937103	2000
62330	2.01060152576272	2000
76319	17.3520386381278	2000
59530	0.598655931514095	2000
76026	4.37032545302888	2000
80802	1.18649605889353	2000
80545	0.915846682307085	2000
59587	0.970687868982752	2000
80789	0.246972889808174	2000
59280	1.30381125126742	2000
62623	0.745804401489612	2000
76554	0.485305528018635	2000
62129	0.163712868945638	2000
80560	0.382369345896303	2000
59518	0.908585289974903	2000
62641	0.476578123606574	2000
62075	2.25638001495343	2000
59624	3.90710918496964	2000
62824	0.382624608503037	2000
80490	0.458002204581269	2000
76338	0.301741587869071	2000
62459	0.347732382638248	2000
62695	0.391054418061632	2000
59378	68.4815756654341	2000
62045	2.5289193660857	2000
62359	1.05152272841976	2000
62073	2.00573615178627	2000
76222	7.34235776033919	2000
59337	0.97347167096432	2000
59440	1.42794186029577	2000
59642	0.833864087226569	2000
62212	0.719495882415884	2000
62007	0.963648899202581	2000
59278	6.92078626359575	2000
76582	0.465512774862137	2000
62051	8.22310762752481	2000
76745	0.314222029195971	2000
59507	34.1049709998436	2000
59304	0.72079322664078	2000
59413	1.0086236447079	2000
80761	0.407328814639524	2000
62567	0.853697884570063	2000
59432	0.813933075553098	2000
59320	2.31247901965184	2000
62630	0.397356590737507	2000
59006	0.317725960142576	2000
80006	0.302558594222944	2000
62797	0.430696496912189	2000
62665	0.321826160144271	2000
76419	0.290136374304109	2000
62279	1.93172195475932	2000
62495	0.405211242376691	2000
76681	52.1685677893524	2000
62766	1.56756610143997	2000
59028	14.3433034677669	2000
62068	0.609587120178437	2000
80218	0.305514809229647	2000
76441	1.13162059462015	2000
62070	0.405644830070274	2000
62211	0.259069579624179	2000
80455	0.123442553586365	2000
76273	0.863053595761278	2000
59632	9.99982996598612	2000
80263	0.0791030882966379	2000
76058	0.42194169245116	2000
76627	2.01150410846686	2000
76057	23.7959124278916	2000
62004	14.0962719141552	2000
80132	0.365887877488728	2000
62691	0.803641758303165	2000
62306	0.772698090513487	2000
80348	0.235631658999462	2000
59308	1.66981916878744	2000
76395	0.921809274770423	2000
80090	0.286819118965997	2000
76262	0.208415647736861	2000
80756	0.0914846812197743	2000
76327	0.593156910875528	2000
59525	5.34971736613094	2000
62332	0.987733735803125	2000
76390	1.84223616378204	2000
80543	0.164867514909922	2000
59593	0.997735137959091	2000
62355	0.866695792029273	2000
80191	0.284669304913038	2000
76750	2.1400629627454	2000
80217	0.128412561333665	2000
76263	1.78233956468846	2000
76140	0.278096321472873	2000
59295	39.4004843609859	2000
62908	2.49279367342222	2000
62833	0.170533898322844	2000
59113	2.22402908680625	2000
59125	0.703752175815748	2000
80066	0.403946331238367	2000
62320	0.540999181824036	2000
80163	1.23398894974597	2000
76149	0.434341266039774	2000
62310	3.16789876197761	2000
62639	0.633362449002156	2000
62906	3.17298836766737	2000
62900	0.921830252000752	2000
59479	5.640384750888	2000
62889	1.25904375646461	2000
80808	0.689039407406893	2000
62053	1.0562510924703	2000
59424	2.47872924065757	2000
76617	2.50167105771437	2000
59604	1.40253384829993	2000
80221	0.513339777770829	2000
62644	0.948143260481341	2000
80667	0.186977692308137	2000
76749	0.586475499349873	2000
80749	0.407216031345931	2000
76076	0.395642655400863	2000
76577	0.774139237398779	2000
80389	0.0586693393985709	2000
62326	0.425525543669687	2000
80167	0.56884453092696	2000
80751	0.677084553105876	2000
62881	0.645894628566884	2000
76657	1.6332239436756	2000
80481	0.652752664514865	2000
59221	5.065814826261	2000
62737	11.644079001632	2000
76343	0.380679717580124	2000
80650	1.16023013834622	2000
59260	5.68996464574821	2000
62886	0.28885457313743	2000
59351	1.03516160369731	2000
76290	0.739690705720848	2000
80635	2.62071678821786	2000
76436	1.02311675231823	2000
62555	10.3418170109469	2000
62496	0.438942238042101	2000
59549	0.510786187301988	2000
76302	4.45281961294981	2000
80131	5.26721201067415	2000
76109	0.252741265708509	2000
62747	0.816688113106951	2000
62385	0.626192973277908	2000
62849	3.70533314339558	2000
62501	0.428262595454008	2000
59354	1.30499351812921	2000
62446	1.14394141944612	2000
80409	0.28336366736128	2000
59167	0.315835492171349	2000
76373	0.446035421424691	2000
62455	0.197412902773481	2000
59326	1.74709777120807	2000
62219	0.300791338167482	2000
59555	2.67074763520169	2000
59617	0.997041956128863	2000
59606	86.1142186974126	2000
80064	0.271427217979581	2000
80741	0.317804271137085	2000
76306	0.248469561539407	2000
59342	0.358244367715919	2000
80168	1.70712260298977	2000
76460	1.07931587429213	2000
80451	0.171368899444329	2000
80247	1.15117222079605	2000
62674	0.88660097193626	2000
76036	1.09566942634344	2000
59041	4.35895889711556	2000
76440	0.24141095911195	2000
76532	1.18613281933495	2000
80571	0.796979014414023	2000
59330	4.06882033145076	2000
76392	1.92712583327846	2000
59528	2.54470117148417	2000
76605	0.70967062720622	2000
80225	0.324801984470511	2000
59269	2.38059681210859	2000
62448	3.34987656794467	2000
62720	0.0506883742284399	2000
59288	4.54598891265402	2000
76103	11.5035470828944	2000
62862	0.252572662093991	2000
59494	0.282433465339924	2000
76117	0.962296440190292	2000
62676	0.88538995523878	2000
62869	1.76803015468746	2000
80207	0.715611933161006	2000
62017	0.238043202677411	2000
62191	1.13416378184481	2000
59082	3.08343711579605	2000
76001	1.79494435732121	2000
76093	0.433659033371299	2000
80189	0.077233190320092	2000
76476	15.2589647562255	2000
76322	47.581393748207	2000
80766	0.776171204287118	2000
76181	0.271107033981795	2000
62010	0.366930355942644	2000
62895	15.5309638664491	2000
76453	1.65706813783906	2000
80628	1.07427463677285	2000
59200	0.764369822002264	2000
76206	0.484088415988494	2000
76321	2.96917440627956	2000
59491	24.1758201518135	2000
62217	5.2008802667554	2000
80702	1.60337633006845	2000
80418	0.113414592598699	2000
59465	1.43063825485775	2000
62579	0.818584760762352	2000
59516	1.52152448565663	2000
76497	16.872588076149	2000
62387	0.548267490804472	2000
76699	0.495473580642251	2000
76184	0.201850423735922	2000
76194	0.689421375527902	2000
62117	1.56098092440881	2000
59149	1.95031039489019	2000
80682	0.35206666440259	2000
76467	1.94623528882086	2000
59356	3.9280945356802	2000
76197	0.297969499391323	2000
59446	0.822291262410129	2000
76195	0.253216883776313	2000
62304	0.494633970826898	2000
80128	0.220165614940315	2000
76334	0.936836591603093	2000
59478	2.10519181821769	2000
76330	1.0947928865293	2000
62509	0.48792471967576	2000
76589	0.307324141676577	2000
76753	1.94355011747654	2000
76292	0.217592966196047	2000
59375	8.27565143347773	2000
62826	7.84715436282601	2000
76228	0.665096532177567	2000
76202	0.435048580163552	2000
59029	2.32159475442852	2000
80143	0.232266201436711	2000
62049	0.697334741534757	2000
80082	1.36570685333547	2000
80215	0.384068863443772	2000
59547	1.45888982443994	2000
62354	1.28739235263267	2000
62827	2.24309259468607	2000
76293	0.26925767364696	2000
80687	0.26244959232038	2000
59371	1.02204862316659	2000
62698	0.44849219888819	2000
80639	2.42314329175614	2000
76333	0.714892865609548	2000
62337	0.344142980302828	2000
59345	5.04247536139913	2000
59164	0.415552700409847	2000
76008	1.13542993726444	2000
62532	1.96094462587696	2000
62435	0.188824296325254	2000
59648	27.4074921387492	2000
76239	1.21354877474762	2000
76303	1.1460584211197	2000
76700	2.20492216618898	2000
62270	12.8198263570325	2000
76099	1.00639204328733	2000
62432	0.67990771142321	2000
76757	1.262288699398	2000
59475	4.30063888490906	2000
80203	0.1698492310211	2000
76169	1.94462070565717	2000
59610	1.62401621584108	2000
62462	0.192766828715418	2000
59469	0.472933205981644	2000
80796	0.384177268960343	2000
76578	0.435856597869787	2000
59239	9.4220415255691	2000
62445	1.38597229013005	2000
59607	0.732521288585359	2000
59634	1.4373825078231	2000
76727	1.68957607306416	2000
62421	0.664687554370261	2000
62885	0.371984019191875	2000
59464	3.59314129162057	2000
62803	0.82119481570793	2000
59043	25.6357766739859	2000
76491	1.07535450528446	2000
76587	1.27219188332562	2000
76100	2.01443972851193	2000
59173	2.7184106076892	2000
62819	1.71536711223149	2000
59485	3.03668078680913	2000
62873	1.17657818758785	2000
62401	8.36392014915021	2000
59665	0.470755719066976	2000
62175	0.23087829428204	2000
80597	1.52230779911722	2000
59238	2.77941656859814	2000
62238	0.115493526261724	2000
62903	0.827398268117979	2000
80051	0.409883786352641	2000
80356	0.128262924719446	2000
80198	0.665720698123766	2000
62086	0.591288146425269	2000
76266	1.17025269305555	2000
80466	0.158909109700398	2000
62651	0.72728127121476	2000
80118	0.211018811977505	2000
76618	3.47237982288336	2000
80437	0.183820673134648	2000
59519	2.54193911677694	2000
59614	2.52178114087991	2000
80598	2.02599601332582	2000
80742	0.0990930835763637	2000
76596	2.5980694341085	2000
80744	0.104702578922962	2000
62616	0.322912866996311	2000
62709	0.479723348225104	2000
80205	1.40063053014598	2000
80619	1.20719809715886	2000
59647	5.25064122978849	2000
59349	3.02682467362757	2000
62648	0.673602701748403	2000
59206	6.57677338231048	2000
76653	0.600651206248456	2000
59552	0.380747626284811	2000
76377	3.87977706746643	2000
80631	0.196950450263469	2000
76389	0.303522199921008	2000
62624	10.0292777254718	2000
80569	0.444435769984933	2000
80609	0.553765382676973	2000
80390	0.599661744663264	2000
59044	7.47271523691795	2000
62791	0.105126549110676	2000
62753	10.6744123884987	2000
80133	0.390284493800991	2000
59448	0.830276019947282	2000
80049	0.251614581722647	2000
80087	0.348170593303165	2000
62442	0.81587628759895	2000
76192	4.24107354169916	2000
80696	1.89326293882241	2000
59574	21.862793805696	2000
76017	0.76975627782414	2000
80296	2.21143905231445	2000
62755	6.72324692071748	2000
62077	0.55194256288097	2000
59322	6.04329978132837	2000
59202	8.01481095024024	2000
76545	3.41565132808797	2000
59273	23.0151072776249	2000
80385	0.575421117281601	2000
62030	0.46630455298986	2000
59524	9.38951333978947	2000
76162	0.36673863712344	2000
59270	0.740209670170603	2000
62571	4.6811130642686	2000
62300	5.29694591198078	2000
80552	2.27770564716608	2000
59101	0.751428034376288	2000
76142	0.689175870816702	2000
59557	3.88760244493768	2000
76041	1.19412964014112	2000
80480	0.176717967571734	2000
76697	1.19295399403667	2000
80775	1.22058831443284	2000
76199	1.01407948815663	2000
59073	0.885507943246771	2000
62901	1.3125521828865	2000
62546	0.548249642758747	2000
62185	0.44014888418448	2000
62173	8.21276078986381	2000
80824	0.404393470380244	2000
59377	3.57721412306601	2000
62181	2.3674025344256	2000
76443	0.979581586705936	2000
59582	1.29774426694319	2000
62001	2.83292021264307	2000
59191	1.13099443465791	2000
59059	0.776565432058669	2000
62170	4.30565343355222	2000
80530	0.935789227435695	2000
62018	0.371039887949489	2000
62504	0.468100851465466	2000
59581	5.59662642894454	2000
62334	1.55692238573454	2000
62452	2.34279497923805	2000
62113	0.855508725328421	2000
62237	0.773739570493875	2000
80503	0.266899383655674	2000
59662	2.00018339837539	2000
59352	14.384446656063	2000
76464	3.28994765440526	2000
80747	0.25011451902182	2000
80063	1.73565509118891	2000
62101	0.240760847127845	2000
59501	2.36538868304151	2000
80099	0.359732018206261	2000
76499	1.79063404261626	2000
76249	1.06145694177332	2000
76226	0.239106385101584	2000
59550	5.32992545786717	2000
76622	0.415392227490659	2000
59061	0.451004864268193	2000
62779	0.293966993301888	2000
62625	0.0902247516771406	2000
62195	2.75849376555477	2000
80129	0.987382762181402	2000
80511	0.127048302826676	2000
59513	0.6855348169139	2000
76242	0.378915189501199	2000
62831	0.449824125252061	2000
76225	0.698937128804389	2000
59597	1.06238155308357	2000
62367	1.4252235609366	2000
80738	0.293638655163138	2000
62083	14.3977053929146	2000
80135	0.435460367008973	2000
62416	0.315960708433693	2000
76078	0.24411573618191	2000
59119	0.822007582259255	2000
62232	1.36670000291456	2000
59146	5.07877649465759	2000
80482	0.228564087358724	2000
76278	1.75820828106347	2000
76475	9.03496056623265	2000
80463	1.03310505413244	2000
62540	2.35292379542199	2000
76014	2.22225531975815	2000
76592	1.38904607061498	2000
80497	0.194224308228863	2000
62788	1.01179197105379	2000
76115	0.954929743572279	2000
59358	2.19420280329797	2000
62493	0.417592934626752	2000
62784	1.20922809533397	2000
62201	4.51215770324135	2000
59451	0.797029657322003	2000
62876	0.211000622354835	2000
62582	0.980341389225306	2000
62414	0.401825629849163	2000
62297	5.47422740603423	2000
62144	0.768152953384775	2000
76437	0.825264005939003	2000
62188	5.00731188723689	2000
76543	0.952402283364846	2000
59185	3.55228472217149	2000
59459	9.66797457052486	2000
62160	86.000090821384	2000
80416	1.20069377157291	2000
76237	0.751856826111646	2000
76541	2.03627866946538	2000
62718	2.66686314720731	2000
59305	2.42633634736596	2000
59658	0.582653940065683	2000
76323	0.238391671574815	2000
59578	2.84151628586526	2000
76552	12.6115492437232	2000
76600	2.91806318828464	2000
62527	0.460903028334887	2000
62056	1.22539078322844	2000
59434	2.16150189782435	2000
80279	1.21777504071669	2000
80311	0.174412474297681	2000
80657	0.490553182988727	2000
80528	0.0106488633941658	2000
80582	1.80055957218183	2000
62167	0.367646932877439	2000
59439	0.533542344205411	2000
62428	0.652385025544488	2000
76537	0.321160483433194	2000
62584	2.26946748567351	2000
80208	0.295412065609305	2000
62514	0.381733349866044	2000
62256	0.247118884690057	2000
62578	0.144299198040013	2000
62194	10.5055183189152	2000
80446	1.16893664667156	2000
59089	2.36837356890993	2000
62685	0.455109144611642	2000
62569	0.88633999649673	2000
80317	0.381011107074581	2000
59541	1.62871846576646	2000
80505	0.253283929337238	2000
59118	4.38213035429779	2000
80136	2.14675776106768	2000
76479	0.181441499291749	2000
59212	10.4226410562992	2000
62258	0.486144541018777	2000
59100	0.495711126515707	2000
62841	4.36066837160312	2000
59430	1.88976306481274	2000
80322	0.219423859287333	2000
62768	0.177845236623314	2000
62867	0.42829491969726	2000
76147	1.43380365782922	2000
62825	1.2946540978872	2000
62108	26.9820146500486	2000
62763	1.53080818830618	2000
59620	1.11163158924349	2000
80181	0.150084400113017	2000
62828	0.0828399921642395	2000
76591	4.26575900496236	2000
80825	0.209278336545609	2000
62216	0.318192788195356	2000
76187	0.378504558450188	2000
76349	3.35108373053659	2000
62059	0.47050129405607	2000
62787	0.419806855177961	2000
80280	0.227450007681936	2000
80288	0.504178188930728	2000
62814	0.204832735541599	2000
80649	2.04214725669796	2000
62634	1.83201562070226	2000
59361	6.78870050741896	2000
80333	1.79240381279957	2000
59415	0.324767303841076	2000
59258	4.39745014751158	2000
80065	0.138569188143922	2000
62275	0.544087249510415	2000
59381	1.6148121412398	2000
59196	1.9404365497256	2000
59629	2.43646182155175	2000
59241	0.834580117382758	2000
76639	0.254033419479653	2000
59193	5.31458249674618	2000
59198	0.388359667715319	2000
62724	16.7020890389929	2000
80165	0.239452414932856	2000
62267	0.606537818286071	2000
59223	0.766265247068968	2000
80264	0.150666171239724	2000
62887	0.452566634135788	2000
59186	0.191776507206813	2000
76038	0.608825731494163	2000
80487	0.190319367485247	2000
62848	5.89664246354634	2000
62517	0.366460495216255	2000
80430	0.306843533760315	2000
59208	0.533116823579132	2000
62589	1.73170340964147	2000
62066	0.0655616034424313	2000
62837	0.802471653418119	2000
62409	0.287519614079877	2000
59622	2.0834724429276	2000
76660	1.2985496561977	2000
59420	0.109707144188618	2000
76235	3.52212866706752	2000
59131	16.3171913518736	2000
76172	0.269173348883079	2000
62426	0.326003638405749	2000
59251	0.523872948176521	2000
76558	1.81964354232552	2000
59369	7.027647281712	2000
80704	0.638657590150311	2000
59403	1.14522184177369	2000
62605	0.0211099191601715	2000
62021	0.573987831955341	2000
76372	0.463381429623538	2000
59306	0.534373752857338	2000
62600	0.2644212345238	2000
62528	12.3601619024489	2000
80790	0.275773540814069	2000
59447	15.8234721493674	2000
80376	0.819662528255589	2000
76007	1.19498087220658	2000
80395	0.403314301577809	2000
59189	1.76053687506957	2000
59027	2.52742114802265	2000
62870	1.48806083101269	2000
59225	13.0860572351184	2000
80474	0.618697004278404	2000
80113	0.620318475602985	2000
62615	0.35280622201713	2000
76602	0.99479034095466	2000
80821	0.424518575101634	2000
59556	0.512908192828475	2000
76276	5.5755604180038	2000
59086	3.44773620628171	2000
62370	0.231701261902156	2000
76718	2.08253014872282	2000
76498	42.9971717076194	2000
62412	1.76387611355853	2000
62120	0.733228516529436	2000
80204	1.06885972484986	2000
62610	1.4096235941649	2000
76649	0.989506693295599	2000
76637	1.29225119164644	2000
62454	3.54958531609452	2000
62236	0.537228230321619	2000
80795	0.863139385468282	2000
76346	0.673682924930549	2000
59108	1.12748028661096	2000
80105	0.278476186838824	2000
80364	1.19062677691398	2000
80484	0.634771559713202	2000
80710	0.64009274827649	2000
59366	1.16323275772103	2000
76445	0.963429975393691	2000
76110	0.723269915360865	2000
59110	2.14465362178435	2000
80388	0.275475020181206	2000
62559	1.72502259376162	2000
59335	4.52496373178271	2000
80268	0.954938972394508	2000
80337	0.451252834284662	2000
80258	0.12892753579316	2000
80287	0.418730917542458	2000
80160	2.19023874806849	2000
59022	4.07914337524842	2000
76671	0.261572994011302	2000
62364	4.50244573330663	2000
59652	0.681457029942162	2000
62187	0.278868614555269	2000
80489	9.48405897435271	2000
76397	1.67825445100637	2000
62026	0.15096047204578	2000
62249	11.6772333715145	2000
59626	2.09427043701845	2000
80101	1.28720262178166	2000
62613	1.45747162392949	2000
80250	0.449074490295123	2000
62134	0.198122680200037	2000
62352	0.19405803509299	2000
62196	1.01208242645943	2000
80533	5.33001224881144	2000
76383	0.127564843601339	2000
62106	0.432258186219745	2000
76118	0.445000350484209	2000
76580	1.38639107378669	2000
80719	0.085070668640497	2000
59657	0.980603554973441	2000
59340	8.43199253697056	2000
76614	2.37283593966989	2000
59558	2.9923765210126	2000
80407	0.183086728317734	2000
80637	0.551949861720712	2000
76566	1.04722957751243	2000
59422	1.01356596316097	2000
76370	0.654595542160236	2000
59184	1.00348541825663	2000
76450	0.375618392442942	2000
80655	0.746418607326189	2000
80194	0.204342283355484	2000
76387	0.560800898631573	2000
80060	0.172949748103543	2000
62534	7.20137866786185	2000
76557	2.41852445803596	2000
76011	0.28225734426265	2000
59338	0.970127048400804	2000
80736	0.379455382264146	2000
62114	0.192549251301059	2000
80606	2.12943731518829	2000
62808	0.497278288030715	2000
62373	1.56141726318329	2000
80434	0.364737512667573	2000
80558	0.360000258227218	2000
59471	3.37715427552509	2000
62273	0.819984398916091	2000
62618	1.37543439043151	2000
76257	0.309814589028586	2000
59666	2.3064086663973	2000
59484	11.7799295550393	2000
62102	0.41790359296137	2000
80522	0.177635765584579	2000
59402	1.21713773043268	2000
59216	0.640079988761337	2000
62130	0.985230778589952	2000
59199	1.39735286999604	2000
62382	1.02343175899019	2000
62596	0.461253102722973	2000
62477	1.14981705039364	2000
76287	1.71951210418042	2000
80833	0.219964794377692	2000
62169	0.285423416620648	2000
76018	2.27716623153165	2000
80347	0.261826762826854	2000
62667	18.517102217734	2000
59426	17.7274414671633	2000
76072	0.819093207476515	2000
76281	2.88065122733669	2000
62583	1.17917063586673	2000
62813	0.715699728928025	2000
76176	0.450629022703203	2000
59539	1.5463146946157	2000
80508	0.106997594506902	2000
62152	0.358979628816152	2000
80763	0.60315219146648	2000
76054	1.01933963808673	2000
80211	2.89737550646921	2000
62757	7.05634537821547	2000
62011	1.09514262295893	2000
80500	0.861088940592075	2000
62312	0.527619539552256	2000
62507	0.431951549577852	2000
62392	0.642153069390848	2000
80536	0.497121704149188	2000
59651	3.08105145877706	2000
80043	0.360033267941438	2000
76493	0.714335298976406	2000
80134	0.0928988032799692	2000
76752	3.56253714331227	2000
76295	2.54436926535911	2000
62762	0.183042043024868	2000
62786	0.43498990326388	2000
59124	2.99146898745948	2000
80733	0.542238360113491	2000
76317	0.688870053613358	2000
80502	0.155107066233143	2000
76208	0.977118587441649	2000
80541	0.249291862593307	2000
59220	28.8220567509316	2000
80183	0.425887170618503	2000
76119	0.268550511414794	2000
62499	0.488127985682877	2000
59231	1.98186769303602	2000
59290	0.747139716274958	2000
76055	0.583148227828843	2000
80240	2.20635453781732	2000
80251	0.383402460495326	2000
62119	49.4486509700792	2000
62149	0.358018323586313	2000
62254	1.00852961717097	2000
59087	1.3649818308855	2000
59236	0.382528539750066	2000
80686	1.28834645479512	2000
62811	1.73768463314937	2000
62642	1.38854603328418	2000
59400	16.3747946722545	2000
59105	2.56289890583715	2000
59035	4.40477564245939	2000
59291	28.8427702678323	2000
80716	1.85808390390684	2000
76043	2.20964205407552	2000
80624	0.405468127259355	2000
59005	5.86721700082036	2000
59201	0.816376034759105	2000
76146	2.11060982314882	2000
76096	0.978028541051201	2000
59592	6.2781384503665	2000
76514	1.6272157831887	2000
59410	46.4738654797486	2000
80069	0.328070252580811	2000
76526	0.191523039449285	2000
80586	0.313521536669964	2000
76726	0.458428507645597	2000
62535	0.254531958020784	2000
62659	0.206848526442315	2000
76403	0.240611251074741	2000
62524	2.27649012502079	2000
80526	0.218109813789867	2000
80592	0.941884785670566	2000
59254	1.52408030339387	2000
80783	0.120358980234554	2000
59572	3.22559464982091	2000
62282	0.269004433658924	2000
62739	0.57313193449572	2000
59016	4.75350703978035	2000
59012	5.46002555760311	2000
80126	1.66907415890467	2000
80713	0.53901646811327	2000
59299	34.9875196910276	2000
62838	0.11102058215073	2000
76574	0.737803742936645	2000
62728	1.17922062785234	2000
80210	0.166850940039888	2000
80426	0.728585211457151	2000
62531	1.44851536527675	2000
59166	2.02353152312737	2000
62405	0.897103560556857	2000
62002	0.337211737537317	2000
80377	0.794882922193539	2000
80246	0.689796899672881	2000
76250	1.73165099937982	2000
80244	0.254386717202859	2000
76647	6.33214380982242	2000
76438	0.460599306872651	2000
62823	0.229496830307353	2000
62176	1.11475376433387	2000
62749	0.41219764972702	2000
76611	0.501716310878141	2000
76136	1.30843912163105	2000
62347	0.232732414310657	2000
76693	1.03287139776753	2000
80071	3.95407246425052	2000
76264	0.648637003684023	2000
59268	9.99631008182256	2000
62046	1.22466262380441	2000
76385	2.32679951880048	2000
59237	1.46877792549825	2000
80419	0.661795767445623	2000
76044	0.480183620302888	2000
76068	1.13381534456967	2000
62545	0.353964155754874	2000
76111	0.597024432355349	2000
62494	0.116010340243555	2000
80538	0.206641858224472	2000
62898	0.353752324274533	2000
76207	0.343233493236316	2000
80227	0.625596263123299	2000
80421	0.437459078157273	2000
59639	1.8461574543608	2000
59078	0.946452661560075	2000
59643	0.312744673183959	2000
62783	0.474785989797605	2000
76374	2.4980355346792	2000
80544	0.301106665361981	2000
80281	0.315769951627664	2000
80256	2.5190700888371	2000
80365	0.232351007614107	2000
76340	0.687712998343735	2000
62643	26.8812372339107	2000
62318	21.2994577499904	2000
80684	0.211463794668696	2000
62464	5.53726663214748	2000
80400	0.560026109272207	2000
80773	0.13231930429003	2000
80633	0.837746833236294	2000
80188	1.05258911851668	2000
80590	0.51954218687466	2000
62014	17.2652004802397	2000
76229	0.644044533748269	2000
76675	1.58372376219654	2000
80762	0.702191816623722	2000
76588	0.659035339674007	2000
62713	2.01868165381271	2000
80623	0.587046906346198	2000
80080	0.276125284942	2000
62460	0.413652988380909	2000
59445	2.13798926105341	2000
76244	0.521218552944938	2000
62586	0.663837295753147	2000
62376	3.98680996028018	2000
80326	0.186335833221217	2000
62449	0.311468666695204	2000
59097	0.479837705363523	2000
76599	5.65842231790157	2000
80157	0.137809389709102	2000
62710	0.242134519680203	2000
76457	1.66439438656042	2000
59591	1.59580820351484	2000
80759	0.651868885604681	2000
76227	0.858604487383886	2000
80815	1.33908281065161	2000
62611	0.86955577265354	2000
62523	10.1504723078054	2000
59449	14.7077196943198	2000
80045	0.294593732937207	2000
76608	2.93124164666032	2000
80644	0.978006421531093	2000
62550	2.25586255263983	2000
80056	0.179193741521507	2000
80570	7.66586948449256	2000
76354	2.07360187175568	2000
80360	4.0082010121405	2000
59655	0.373009294998859	2000
76079	0.235115690786499	2000
80384	0.317278485059597	2000
80214	0.421482265383506	2000
76707	1.98007298060783	2000
59019	1.88226089362128	2000
62792	1.80241929822269	2000
80531	0.158300108713667	2000
80334	0.222741747686917	2000
76420	0.492721675449681	2000
62541	0.157128073406682	2000
80112	0.411852432880731	2000
59627	1.80491687016893	2000
80236	0.806245456391435	2000
80626	0.50457602388192	2000
80081	0.162644579201115	2000
80010	4.62993833259166	2000
76571	1.05077858369975	2000
80669	0.573301296552353	2000
59026	1.96293030348917	2000
80499	0.418508874448917	2000
62280	0.501889166762729	2000
62660	0.76931312829584	2000
76113	0.500463030195081	2000
76365	0.245884381914444	2000
62248	0.717733129913481	2000
76056	1.04924248045757	2000
59436	1.29878436068599	2000
80666	0.0717736563784162	2000
80144	1.01805206719864	2000
80574	0.114331001430088	2000
80147	0.5959795720632	2000
76107	0.3934401813552	2000
80524	0.958475969003468	2000
80550	0.265196958926836	2000
76259	36.1834336036529	2000
59292	5.47321677157085	2000
76548	1.05654622839044	2000
80283	0.236488359332755	2000
76021	0.757541724951798	2000
62533	0.205244637875895	2000
62498	66.0188219505068	2000
80397	0.190319426960332	2000
80537	0.170034397014774	2000
80169	0.138736387458948	2000
80359	0.457362098528499	2000
80540	0.398630633733115	2000
80791	1.26830401905759	2000
80358	0.192312558477258	2000
80121	0.174205178388265	2000
62209	0.309044913855578	2000
59474	1.57071760560476	2000
59002	7.1521138084972	2000
80549	1.08093957468368	2000
62141	1.27081131679538	2000
59219	0.86227452233657	2000
59114	2.75192928131597	2000
59192	1.64245929371178	2000
59466	4.20828362615617	2000
62473	15.6800894728963	2000
80707	0.101172212687757	2000
59495	4.46896156232856	2000
59037	6.51941290511509	2000
62712	1.87045827103568	2000
80172	0.826884914303873	2000
80031	1.20382804042439	2000
59577	1.06950099336957	2000
80764	0.490742340947259	2000
59661	0.277949882688113	2000
59532	0.472779875646931	2000
80137	0.824320705416974	2000
62558	0.265756508504519	2000
59009	144.341338993424	2000
76258	3.31617420748649	2000
59281	1.67423995153335	2000
80115	0.619608654195093	2000
80103	0.10369454572482	2000
59038	2.37626954670892	2000
62244	9.80343709354049	2000
59571	8.30788637217096	2000
62197	2.89415273700046	2000
59228	2.51865682065474	2000
62892	1.14420224763622	2000
62874	1.13147754039585	2000
62640	0.556382738106493	2000
80290	0.570731687885907	2000
59262	3.28112655632308	2000
80019	1.24566445748937	2000
59476	6.10665454897077	2000
62794	1.13495846464531	2000
62902	6.16383177419846	2000
76106	0.81619496570761	2000
